<?xml version="1.0" encoding="UTF-8" standalone="no"?>
<svg
   xmlns:dc="http://purl.org/dc/elements/1.1/"
   xmlns:cc="http://creativecommons.org/ns#"
   xmlns:rdf="http://www.w3.org/1999/02/22-rdf-syntax-ns#"
   xmlns:svg="http://www.w3.org/2000/svg"
   xmlns="http://www.w3.org/2000/svg"
   height="50"
   width="50"
   id="svg8"
   version="1.1">
  <metadata
     id="metadata12">
    <rdf:RDF>
      <cc:Work
         rdf:about="">
        <dc:format>image/svg+xml</dc:format>
        <dc:type
           rdf:resource="http://purl.org/dc/dcmitype/StillImage" />
        <dc:title></dc:title>
      </cc:Work>
    </rdf:RDF>
  </metadata>
  <defs
     id="defs2">
    <symbol
       id="plus">
      <path
         id="path8788"
         d="M 11,21 H 21 V 11.05 Q 21,10.2 21.55,9.6 22.15,9 23,9 h 4 q 0.8,0 1.4,0.6 0.6,0.6 0.6,1.4 v 10 h 10 q 0.8,0 1.4,0.6 0.6,0.6 0.6,1.4 v 4 q 0,0.85 -0.6,1.45 Q 39.8,29 39,29 H 29 v 10 q 0,0.85 -0.6,1.45 Q 27.8,41 27,41 H 23 Q 22.15,41 21.55,40.45 21,39.85 21,39 V 29 H 11 Q 10.15,29 9.55,28.45 9,27.85 9,27 V 23.05 Q 9,22.2 9.55,21.6 10.15,21 11,21"
         style="fill:#000000;fill-opacity:1;stroke:none" />
    </symbol>
    <symbol
       id="cross">
      <path
         id="path8562"
         d="m 39,10 q 0.8,0 1.4,0.6 0.6,0.6 0.6,1.4 v 6 l -8,8 8,8 v 6 q 0,0.85 -0.6,1.45 Q 39.8,42 39,42 h -6 l -8,-8 -8,8 H 11 Q 10.15,42 9.55,41.45 9,40.85 9,40 V 34 L 17,26 9,18 V 12.05 Q 9,11.2 9.55,10.6 10.15,10 11,10 h 6 l 8,8 8,-8 h 6"
         style="fill:#000000;fill-opacity:1;stroke:none" />
    </symbol>
  </defs>
  <path
     style="fill:#000000;fill-opacity:1"
     d="m 722.45,8.7 q 0.6,0.6 0.6,1.4 v 28 q 0,0.85 -0.6,1.45 -0.6,0.55 -1.4,0.55 h -8 q -0.85,0 -1.45,-0.55 -0.55,-0.6 -0.55,-1.45 V 10.15 q 0,-0.85 0.55,-1.45 0.6,-0.6 1.45,-0.6 h 8 q 0.8,0 1.4,0.6 m 16.6,1.4 v 28 q 0,0.85 -0.6,1.45 -0.6,0.55 -1.4,0.55 h -8 q -0.85,0 -1.45,-0.55 -0.55,-0.6 -0.55,-1.45 V 10.15 q 0,-0.85 0.55,-1.45 0.6,-0.6 1.45,-0.6 h 8 q 0.8,0 1.4,0.6 0.6,0.6 0.6,1.4"
     id="path8972" />
  <path
     d="M 659.55,8.6 Q 660.15,8 661,8 h 4 q 0.8,0 1.4,0.6 0.6,0.6 0.6,1.4 v 28 q 0,0.85 -0.6,1.45 Q 665.8,40 665,40 h -4 q -0.85,0 -1.45,-0.55 Q 659,38.85 659,38 V 10.05 q 0,-0.85 0.55,-1.45 m 12,0 Q 672.15,8 673,8 h 4 q 0.8,0 1.4,0.6 0.6,0.6 0.6,1.4 v 28 q 0,0.85 -0.6,1.45 Q 677.8,40 677,40 h -4 q -0.85,0 -1.45,-0.55 Q 671,38.85 671,38 V 10.05 Q 671,9.2 671.55,8.6 M 691,10 v 28 q 0,0.85 -0.6,1.45 Q 689.8,40 689,40 h -4 q -0.85,0 -1.45,-0.55 Q 683,38.85 683,38 V 10.05 Q 683,9.2 683.55,8.6 684.15,8 685,8 h 4 q 0.8,0 1.4,0.6 0.6,0.6 0.6,1.4"
     style="fill:#000000;stroke:none;fill-opacity:1"
     id="path8966" />
  <path
     d="m 671.95,73.2 q 1.8,0.75 3.3,2.25 l 0.25,0.25 q 2.7,2.9 2.7,6.95 0,2.15 -2.7,3.65 l -0.25,0.15 Q 672.3,88 668.1,88 q -4.2,0 -7.15,-1.55 -2.9,-1.55 -2.95,-3.8 0,-4.25 2.95,-7.2 1.5,-1.5 3.25,-2.25 -1.5,-1.55 -1.5,-3.75 0,-2.3 1.6,-3.85 1.55,-1.6 3.8,-1.6 2.25,0 3.85,1.6 1.55,1.55 1.55,3.85 0,2.2 -1.55,3.75 m 5.55,-3.75 q 0,-2.3 1.6,-3.85 1.6,-1.6 3.8,-1.6 2.25,0 3.85,1.6 1.55,1.55 1.55,3.85 0,2.2 -1.55,3.75 1.8,0.75 3.3,2.25 2.95,2.95 2.95,7.2 0,2.25 -2.95,3.8 Q 687.1,88 682.9,88 l -5.15,-0.7 q 2.65,-1.95 2.45,-4.65 0,-4.8 -3.2,-8.3 0.95,-0.7 2.05,-1.15 -1.55,-1.55 -1.55,-3.75"
     style="fill:#000000;stroke:none;fill-opacity:1"
     id="path8962" />
  <path
     d="m 717.55,66 q -0.65,1.55 -0.65,3.4 0,1.35 0.4,2.6 l -0.15,0.15 0.25,0.15 0.25,0.65 q -1.1,0.75 -2.05,1.7 v 0.05 q -4.15,4.15 -4.15,10.05 v 0.2 Q 709.3,84.65 707.6,83.7 705.05,82.4 705,80.45 V 80.4 q 0,-3.65 2.6,-6.25 1.25,-1.35 2.85,-2 -1.35,-1.4 -1.35,-3.3 0,-1.95 1.35,-3.35 1.4,-1.4 3.35,-1.4 1.95,0 3.35,1.4 l 0.4,0.5 m 13.35,8.2 q 1.55,0.85 2.85,2.15 3.45,3.5 3.45,8.4 v 0.05 0.3 q -0.2,2.4 -3.45,4.1 -3.4,1.8 -8.25,1.8 -4.85,0 -8.3,-1.8 -3.2,-1.7 -3.4,-4.1 v -0.3 -0.05 q 0,-4.9 3.4,-8.4 1.35,-1.3 2.85,-2.15 L 721,73.75 q -1.75,-1.8 -1.75,-4.35 0,-2.65 1.85,-4.5 1.8,-1.9 4.4,-1.9 2.6,0 4.45,1.9 1.8,1.85 1.8,4.5 0,2.55 -1.75,4.35 l 0.9,0.45 m 2.6,-8.2 0.4,-0.5 q 1.4,-1.4 3.3,-1.4 1.95,0 3.35,1.4 1.35,1.4 1.35,3.35 0,1.9 -1.35,3.3 1.55,0.65 2.85,2 2.55,2.6 2.55,6.25 v 0.05 q 0,1.95 -2.55,3.25 -1.7,0.95 -3.85,1.25 V 84.8 84.75 q 0,-5.9 -4.15,-10.05 v -0.05 l -2.05,-1.7 0.3,-0.7 0.2,-0.1 -0.15,-0.1 q 0.4,-1.3 0.4,-2.65 0,-1.85 -0.6,-3.4"
     style="fill:#000000;stroke:none;fill-opacity:1"
     id="path8960" />
  <path
     d="m 714.7,114.35 q 4.7,-4.65 11.3,-4.65 6.6,0 11.3,4.7 4.7,4.7 4.7,11.3 0,6.65 -4.7,11.35 -4.7,4.65 -11.3,4.65 -6.6,0 -11.3,-4.65 -4.7,-4.7 -4.7,-11.35 0,-6.6 4.65,-11.3 h 0.05 v -0.05 m 11.3,5.7 q 2.35,0 4,1.65 1.65,1.65 1.65,4 0,2.35 -1.65,4 -1.65,1.7 -4,1.7 -2.4,0 -4.05,-1.7 -1.6,-1.65 -1.6,-4 0,-2.35 1.6,-4 1.65,-1.65 4.05,-1.65 m 0,-4.35 q -4.15,0 -7.1,2.9 -2.95,2.95 -2.95,7.1 0,4.2 2.95,7.1 2.95,2.95 7.1,2.95 4.15,0 7.1,-2.95 h 0.05 q 2.9,-2.9 2.9,-7.1 0,-4.15 -2.9,-7.1 -3,-2.9 -7.15,-2.9"
     style="fill:#000000;stroke:none;fill-opacity:1"
     id="path8954" />
  <path
     d="m 676,122.15 q 1.6,0 2.75,1.1 1.15,1.15 1.15,2.75 0,1.6 -1.15,2.75 -1.15,1.15 -2.75,1.15 -1.6,0 -2.75,-1.15 -1.1,-1.15 -1.1,-2.75 0,-1.6 1.1,-2.75 1.15,-1.1 2.75,-1.1 m 0,-3.9 q -3.2,0 -5.5,2.25 -2.25,2.3 -2.25,5.5 0,3.2 2.25,5.5 2.3,2.25 5.5,2.25 3.2,0 5.5,-2.25 2.25,-2.3 2.25,-5.5 0,-3.2 -2.25,-5.5 -2.3,-2.25 -5.5,-2.25 m 14.8,1.55 q 1.2,2.85 1.2,6.2 0,0.5 -0.35,0.85 -0.35,0.35 -0.85,0.35 h -3.3 l -0.4,2.05 3.1,1.3 0.65,0.65 q 0.2,0.45 0,0.9 -1.15,2.85 -3.55,5.25 l -0.8,0.3 -0.85,-0.3 -2.35,-2.35 -1.75,1.2 1.3,3.05 q 0.2,0.45 0,0.9 l -0.65,0.65 q -2.85,1.2 -6.2,1.2 -0.5,0 -0.85,-0.35 -0.35,-0.35 -0.35,-0.85 v -3.3 l -2.05,-0.35 -1.25,3.05 -0.65,0.65 q -0.45,0.2 -0.9,0 -2.9,-1.15 -5.25,-3.5 -0.35,-0.35 -0.35,-0.85 0,-0.5 0.35,-0.85 l 2.35,-2.35 -1.2,-1.75 -3.1,1.3 q -0.45,0.2 -0.9,0 l -0.65,-0.65 q -1.2,-2.85 -1.2,-6.2 0,-0.5 0.35,-0.85 0.35,-0.35 0.85,-0.35 h 3.3 l 0.4,-2.05 -3.1,-1.25 -0.65,-0.65 q -0.2,-0.45 0,-0.9 1.15,-2.9 3.55,-5.25 0.35,-0.35 0.8,-0.35 0.5,0 0.85,0.35 l 2.35,2.35 q 0.85,-0.7 1.75,-1.2 l -1.3,-3.1 q -0.2,-0.45 0,-0.9 0.2,-0.45 0.65,-0.65 2.85,-1.2 6.2,-1.2 0.5,0 0.85,0.35 0.35,0.35 0.35,0.85 v 3.3 l 2.05,0.4 1.3,-3.1 q 0.15,-0.45 0.6,-0.65 0.45,-0.2 0.95,0 1.85,0.75 3.55,2.05 l 1.65,1.5 q 0.35,0.35 0.35,0.85 l -0.35,0.8 -2.3,2.35 1.15,1.75 3.1,-1.3 q 0.45,-0.2 0.9,0 l 0.65,0.65"
     style="fill:#000000;stroke:none;fill-opacity:1"
     id="path8948" />
  <path
     d="m 665,176 q 0.8,0 1.4,0.6 0.6,0.6 0.6,1.4 v 6 h 16 v -5.95 q 0,-0.85 0.55,-1.45 0.6,-0.6 1.45,-0.6 h 4 q 0.8,0 1.4,0.6 0.6,0.6 0.6,1.4 v 12 q 0,0.85 -0.6,1.45 -0.6,0.55 -1.4,0.55 h -28 q -0.85,0 -1.45,-0.55 Q 659,190.85 659,190 v -11.95 q 0,-0.85 0.55,-1.45 0.6,-0.6 1.45,-0.6 h 4 m 14,-4 v 8 h -8 v -8 h -4 v -4 l 8,-8 8,8 v 4 h -4"
     style="fill:#000000;stroke:none;fill-opacity:1"
     id="path8944" />
  <path
     d="m 728.05,171 q 1.2,0 2.1,0.9 0.9,0.9 0.9,2.1 v 13 h 1 q 1.2,0 2.1,0.9 0.9,0.9 0.9,2.1 v 2 l -0.3,0.7 -0.7,0.3 h -16 q -0.4,0 -0.7,-0.3 -0.3,-0.3 -0.3,-0.7 v -1.95 q 0,-1.25 0.85,-2.1 v -0.05 q 0.9,-0.9 2.15,-0.9 h 1 v -10 h -3 q -0.4,0 -0.7,-0.3 -0.3,-0.3 -0.3,-0.7 v -4 q 0,-0.4 0.3,-0.7 0.3,-0.3 0.7,-0.3 h 10 m -5.55,-3.45 q -1.45,-1.5 -1.45,-3.55 0,-2.05 1.45,-3.5 1.5,-1.5 3.55,-1.5 2.1,0 3.55,1.5 h -0.05 q 1.5,1.5 1.5,3.5 0,2.15 -1.5,3.6 v -0.05 q -1.45,1.45 -3.5,1.45 -2.1,0 -3.55,-1.45"
     style="fill:#000000;stroke:none;fill-opacity:1"
     id="path8940" />
  <path
     d="m 739.45,213.6 q 0.55,0.6 0.55,1.45 V 239 q 0,0.85 -0.55,1.45 -0.6,0.55 -1.45,0.55 h -10 v -4 h 8 v -20 h -8 v -4 h 10 q 0.85,0 1.45,0.6 m -6.75,8.7 0.3,0.7 v 8 l -0.3,0.7 q -0.3,0.3 -0.7,0.3 h -7 v 5 l -0.3,0.7 -0.7,0.3 h -4 l -0.7,-0.3 -10,-10 q -0.3,-0.3 -0.3,-0.7 0,-0.4 0.3,-0.7 l 10,-10 q 0.3,-0.3 0.7,-0.3 h 4 q 0.4,0 0.7,0.3 l 0.3,0.7 v 5 h 7 q 0.4,0 0.7,0.3"
     style="fill:#000000;stroke:none;fill-opacity:1"
     id="path8934" />
  <path
     d="m 738,271.95 q 0,4 -2.3,7.1 l 0.05,0.05 5.05,8.8 0.15,0.65 -0.5,0.55 -0.65,0.15 -4.7,-1.25 -1.25,4.7 -0.5,0.5 -0.65,0.1 -0.55,-0.4 -5.05,-8.8 -0.05,-0.15 -1.05,0.05 -1.1,-0.05 -0.1,0.15 -5.05,8.8 -0.55,0.4 -0.65,-0.1 -0.5,-0.5 -1.25,-4.7 -4.7,1.25 -0.65,-0.15 -0.5,-0.55 q -0.05,-0.35 0.15,-0.65 l 5.05,-8.8 0.1,-0.1 q -2.25,-3.05 -2.25,-7.05 0,-5 3.4,-8.5 3.5,-3.45 8.6,-3.45 5,0 8.5,3.45 3.5,3.5 3.5,8.5 m -6,0.05 q 0,-2.5 -1.75,-4.25 Q 728.5,266 726,266 q -2.55,0 -4.3,1.75 -1.7,1.75 -1.7,4.25 0,2.45 1.7,4.2 1.75,1.8 4.3,1.8 2.5,0 4.25,-1.8 1.75,-1.75 1.75,-4.2"
     style="fill:#000000;stroke:none;fill-opacity:1"
     id="path8932" />
  <path
     d="m 674,217 h -8 v 20 h 8 v 4 h -10 q -0.85,0 -1.45,-0.55 Q 662,239.85 662,239 v -23.95 q 0,-0.85 0.55,-1.45 0.6,-0.6 1.45,-0.6 h 10 v 4 m 19,10 -0.3,0.7 -10,10 -0.7,0.3 h -4 l -0.7,-0.3 -0.3,-0.7 v -5 h -7 q -0.4,0 -0.7,-0.3 -0.3,-0.3 -0.3,-0.7 v -8 q 0,-0.4 0.3,-0.7 0.3,-0.3 0.7,-0.3 h 7 v -5 q 0,-0.4 0.3,-0.7 0.3,-0.3 0.7,-0.3 h 4 q 0.4,0 0.7,0.3 l 10,10 0.3,0.7"
     style="fill:#000000;stroke:none;fill-opacity:1"
     id="path8928" />
  <path
     d="m 676,266 q -2.55,0 -4.3,1.75 -1.7,1.75 -1.7,4.25 0,2.45 1.7,4.2 1.75,1.8 4.3,1.8 2.5,0 4.25,-1.8 1.75,-1.75 1.75,-4.2 0,-2.5 -1.75,-4.25 Q 678.5,266 676,266 m 12,5.95 q 0,4.95 -3.5,8.45 -1.6,1.65 -3.5,2.55 v 10.1 l -0.25,0.65 -0.65,0.25 -0.65,-0.2 -3.45,-3.45 -3.45,3.45 -0.65,0.2 -0.65,-0.25 -0.25,-0.65 V 283 q -1.95,-0.95 -3.6,-2.6 -3.4,-3.5 -3.4,-8.45 0,-5 3.4,-8.5 3.5,-3.45 8.6,-3.45 5,0 8.5,3.45 3.5,3.5 3.5,8.5"
     style="fill:#000000;stroke:none;fill-opacity:1"
     id="path8924" />
  <path
     d="m 667,323.15 v 1.1 h 1.6 v 4.5 h 1.25 v -4.5 h 1.6 v -1.1 H 667 m -3.5,1.5 0.2,-0.4 0.5,-0.1 q 0.75,0 1.5,0.55 l 0.65,-0.95 -1,-0.55 -1.1,-0.15 q -0.9,0 -1.45,0.4 -0.55,0.45 -0.55,1.25 0,0.8 0.45,1.15 0.45,0.4 1.4,0.6 l 0.85,0.3 0.2,0.4 -0.2,0.4 -0.55,0.15 q -0.75,0 -1.65,-0.8 l -0.75,0.95 q 1.05,0.95 2.4,0.95 l 1.45,-0.45 q 0.6,-0.45 0.6,-1.2 0,-0.75 -0.45,-1.15 l -1.25,-0.6 -1,-0.35 -0.25,-0.4 m 22.95,-0.4 h 1.6 v -1.1 h -4.45 v 1.1 h 1.6 v 4.5 h 1.25 v -4.5 m -6.9,0 h 0.9 l 0.85,0.15 0.25,0.6 -0.25,0.7 -0.85,0.2 h -0.9 v -1.65 m 0,2.7 h 0.85 l 1.25,1.8 h 1.5 l -1.4,-2 q 1.05,-0.4 1.05,-1.75 0,-0.95 -0.55,-1.4 -0.55,-0.45 -1.85,-0.45 h -2.1 v 5.6 h 1.25 v -1.8 m -4.3,-3.8 h -1.2 l -2.45,5.6 h 1.35 l 0.5,-1.2 h 2.35 l 0.5,1.2 h 1.35 l -2.4,-5.6 m 0.1,3.3 h -1.4 l 0.7,-1.65 0.7,1.65 M 696.4,314.6 q 0.6,0.6 0.6,1.4 v 20 q 0,0.85 -0.6,1.45 l -0.45,0.35 -0.95,0.2 h -39 q -0.85,0 -1.45,-0.55 Q 654,336.85 654,336 v -19.95 q 0,-0.85 0.55,-1.45 0.6,-0.6 1.45,-0.6 h 39 l 0.95,0.25 0.45,0.35"
     style="fill:#000000;stroke:none;fill-opacity:1"
     id="path8902" />
  <path
     d="m 726.4,327.65 v -1.15 h 2.5 v -1.1 h -2.5 v -1.15 h 2.75 v -1.1 h -4 v 5.6 h 4.1 v -1.1 h -2.85 m -7.05,-3.4 v -1.1 h -4 v 5.6 h 4.1 v -1.1 h -2.85 v -1.15 h 2.5 v -1.1 h -2.5 v -1.15 h 2.75 m 2.5,3.4 v -4.5 h -1.25 v 5.6 h 3.6 v -1.1 h -2.35 m -7.55,-0.5 q 0,-0.75 -0.45,-1.15 -0.45,-0.4 -1.25,-0.6 l -1,-0.35 -0.25,-0.4 0.2,-0.4 0.5,-0.1 q 0.75,0 1.5,0.55 l 0.65,-0.95 q -0.45,-0.35 -1,-0.55 l -1.1,-0.15 q -0.9,0 -1.45,0.4 -0.55,0.45 -0.55,1.25 0,0.8 0.45,1.15 0.45,0.4 1.4,0.6 l 0.85,0.3 0.2,0.4 -0.2,0.4 -0.55,0.15 q -0.75,0 -1.65,-0.8 l -0.75,0.95 q 1.05,0.95 2.4,0.95 0.9,0 1.45,-0.45 0.6,-0.45 0.6,-1.2 m 25.9,-2.9 v -1.1 h -4.45 v 1.1 h 1.6 v 4.5 h 1.25 v -4.5 h 1.6 m -4.95,3.5 -0.8,-0.85 q -0.55,0.75 -1.5,0.75 -0.65,0 -1.15,-0.45 -0.45,-0.5 -0.45,-1.3 0,-0.75 0.5,-1.2 0.5,-0.5 1.2,-0.5 0.85,0 1.45,0.75 l 0.8,-0.85 q -0.95,-1.05 -2.3,-1.05 -1.25,0 -2.1,0.8 -0.85,0.85 -0.85,2.1 0,1.25 0.85,2.05 0.8,0.8 2.1,0.8 1.3,0 2.25,-1.05 M 706,314 h 39 q 0.8,0 1.4,0.6 0.6,0.6 0.6,1.4 v 20 q 0,0.85 -0.6,1.45 -0.6,0.55 -1.4,0.55 h -39 q -0.85,0 -1.45,-0.55 Q 704,336.85 704,336 v -19.95 q 0,-0.85 0.55,-1.45 0.6,-0.6 1.45,-0.6"
     style="fill:#000000;stroke:none;fill-opacity:1"
     id="path8894" />
  <path
     d="M 609.55,39.45 Q 609,38.85 609,38 v -3.95 q 0,-0.85 0.55,-1.45 0.6,-0.6 1.45,-0.6 h 32 q 0.8,0 1.4,0.6 0.6,0.6 0.6,1.4 v 4 q 0,0.85 -0.6,1.45 Q 643.8,40 643,40 h -32 q -0.85,0 -1.45,-0.55 M 644.4,20.6 q 0.6,0.6 0.6,1.4 v 4 q 0,0.85 -0.6,1.45 Q 643.8,28 643,28 h -32 q -0.85,0 -1.45,-0.55 Q 609,26.85 609,26 v -3.95 q 0,-0.85 0.55,-1.45 0.6,-0.6 1.45,-0.6 h 32 q 0.8,0 1.4,0.6 M 645,14 q 0,0.85 -0.6,1.45 Q 643.8,16 643,16 h -32 q -0.85,0 -1.45,-0.55 Q 609,14.85 609,14 V 10.05 Q 609,9.2 609.55,8.6 610.15,8 611,8 h 32 q 0.8,0 1.4,0.6 0.6,0.6 0.6,1.4 v 4"
     style="fill:#000000;stroke:none;fill-opacity:1"
     id="path8888" />
  <path
     d="m 567,26 q 0,0.85 -0.6,1.45 Q 565.8,28 565,28 h -4 q -0.85,0 -1.45,-0.55 Q 559,26.85 559,26 v -3.95 q 0,-0.85 0.55,-1.45 0.6,-0.6 1.45,-0.6 h 4 q 0.8,0 1.4,0.6 0.6,0.6 0.6,1.4 v 4 m 4.55,13.45 Q 571,38.85 571,38 v -3.95 q 0,-0.85 0.55,-1.45 0.6,-0.6 1.45,-0.6 h 16 q 0.8,0 1.4,0.6 0.6,0.6 0.6,1.4 v 4 q 0,0.85 -0.6,1.45 Q 589.8,40 589,40 h -16 q -0.85,0 -1.45,-0.55 M 567,38 q 0,0.85 -0.6,1.45 Q 565.8,40 565,40 h -4 q -0.85,0 -1.45,-0.55 Q 559,38.85 559,38 v -3.95 q 0,-0.85 0.55,-1.45 0.6,-0.6 1.45,-0.6 h 4 q 0.8,0 1.4,0.6 0.6,0.6 0.6,1.4 v 4 m 0,-24 q 0,0.85 -0.6,1.45 Q 565.8,16 565,16 h -4 q -0.85,0 -1.45,-0.55 Q 559,14.85 559,14 V 10.05 Q 559,9.2 559.55,8.6 560.15,8 561,8 h 4 q 0.8,0 1.4,0.6 0.6,0.6 0.6,1.4 v 4 m 24,0 q 0,0.85 -0.6,1.45 Q 589.8,16 589,16 h -16 q -0.85,0 -1.45,-0.55 Q 571,14.85 571,14 V 10.05 Q 571,9.2 571.55,8.6 572.15,8 573,8 h 16 q 0.8,0 1.4,0.6 0.6,0.6 0.6,1.4 v 4 m -0.6,6.6 q 0.6,0.6 0.6,1.4 v 4 q 0,0.85 -0.6,1.45 Q 589.8,28 589,28 h -16 q -0.85,0 -1.45,-0.55 Q 571,26.85 571,26 v -3.95 q 0,-0.85 0.55,-1.45 0.6,-0.6 1.45,-0.6 h 16 q 0.8,0 1.4,0.6"
     style="fill:#000000;stroke:none;fill-opacity:1"
     id="path8876" />
  <path
     d="m 579.9,71.9 q -0.05,-3.25 -2.3,-5.5 v -0.05 q -2.3,-2.25 -5.6,-2.25 -3.3,0 -5.65,2.25 l -0.05,0.05 q -2.25,2.3 -2.25,5.65 0,3.25 2.3,5.55 2.3,2.25 5.55,2.3 h 0.1 q 3.3,0 5.55,-2.3 h 0.05 q 2.3,-2.3 2.3,-5.55 V 71.9 m 0.6,-8.4 q 3.5,3.5 3.5,8.55 0,1.85 -0.45,3.5 l 1.3,1.35 0.3,0.3 0.35,0.35 4.9,4.9 q 1.6,1.7 1.65,3.95 v 0.25 q -0.05,2.25 -1.65,3.8 -1.35,1.4 -3.15,1.65 l -0.8,0.05 -0.75,-0.05 q -1.8,-0.25 -3.25,-1.6 l -2.5,-2.5 v -0.05 l -4.25,-4.3 0.4,0.45 -0.55,-0.55 L 572,84 q -5,0 -8.55,-3.5 Q 560,77 560,72.05 q 0,-5 3.45,-8.55 3.6,-3.5 8.55,-3.5 5.05,0 8.5,3.5"
     style="fill:#000000;stroke:none;fill-opacity:1"
     id="path8872" />
  <path
     id="path8870"
     d="m 630.35,72.25 q 2.5,1.05 4.55,3 4.1,3.95 4.1,9.6 0,3 -4.1,5.05 -4.05,2.1 -9.9,2.1 -5.8,0 -9.9,-2.1 -4.05,-2.05 -4.1,-5.05 0,-5.65 4.1,-9.6 2.05,-1.95 4.55,-3 -2.1,-2.1 -2.1,-5 0,-3 2.2,-5.1 Q 621.9,60 625,60 q 3.15,0 5.3,2.15 2.2,2.1 2.2,5.1 0,2.9 -2.15,5"
     style="fill:#000000;stroke:none;fill-opacity:1" />
  <path
     d="m 517,34 v 4 q 0,0.85 -0.6,1.45 Q 515.8,40 515,40 h -4 q -0.85,0 -1.45,-0.55 Q 509,38.85 509,38 v -3.95 q 0,-0.85 0.55,-1.45 0.6,-0.6 1.45,-0.6 h 4 q 0.8,0 1.4,0.6 0.6,0.6 0.6,1.4 m -2,-14 q 0.8,0 1.4,0.6 0.6,0.6 0.6,1.4 v 4 q 0,0.85 -0.6,1.45 Q 515.8,28 515,28 h -4 q -0.85,0 -1.45,-0.55 Q 509,26.85 509,26 v -3.95 q 0,-0.85 0.55,-1.45 0.6,-0.6 1.45,-0.6 h 4 m 2,-10 v 4 q 0,0.85 -0.6,1.45 Q 515.8,16 515,16 h -4 q -0.85,0 -1.45,-0.55 Q 509,14.85 509,14 V 10.05 Q 509,9.2 509.55,8.6 510.15,8 511,8 h 4 q 0.8,0 1.4,0.6 0.6,0.6 0.6,1.4 m 11.4,22.6 q 0.6,0.6 0.6,1.4 v 4 q 0,0.85 -0.6,1.45 Q 527.8,40 527,40 h -4 q -0.85,0 -1.45,-0.55 Q 521,38.85 521,38 v -3.95 q 0,-0.85 0.55,-1.45 0.6,-0.6 1.45,-0.6 h 4 q 0.8,0 1.4,0.6 M 541,34 v 4 q 0,0.85 -0.6,1.45 Q 539.8,40 539,40 h -4 q -0.85,0 -1.45,-0.55 Q 533,38.85 533,38 v -3.95 q 0,-0.85 0.55,-1.45 0.6,-0.6 1.45,-0.6 h 4 q 0.8,0 1.4,0.6 0.6,0.6 0.6,1.4 M 528.4,20.6 q 0.6,0.6 0.6,1.4 v 4 q 0,0.85 -0.6,1.45 Q 527.8,28 527,28 h -4 q -0.85,0 -1.45,-0.55 Q 521,26.85 521,26 v -3.95 q 0,-0.85 0.55,-1.45 0.6,-0.6 1.45,-0.6 h 4 q 0.8,0 1.4,0.6 M 535,20 h 4 q 0.8,0 1.4,0.6 0.6,0.6 0.6,1.4 v 4 q 0,0.85 -0.6,1.45 Q 539.8,28 539,28 h -4 q -0.85,0 -1.45,-0.55 Q 533,26.85 533,26 v -3.95 q 0,-0.85 0.55,-1.45 0.6,-0.6 1.45,-0.6 m -6,-10 v 4 q 0,0.85 -0.6,1.45 Q 527.8,16 527,16 h -4 q -0.85,0 -1.45,-0.55 Q 521,14.85 521,14 V 10.05 Q 521,9.2 521.55,8.6 522.15,8 523,8 h 4 q 0.8,0 1.4,0.6 0.6,0.6 0.6,1.4 m 12,0 v 4 q 0,0.85 -0.6,1.45 Q 539.8,16 539,16 h -4 q -0.85,0 -1.45,-0.55 Q 533,14.85 533,14 V 10.05 Q 533,9.2 533.55,8.6 534.15,8 535,8 h 4 q 0.8,0 1.4,0.6 0.6,0.6 0.6,1.4"
     style="fill:#000000;stroke:none;fill-opacity:1"
     id="path8850" />
  <path
     d="m 518.05,69.1 h 8 v 3 h -8 v -3 m 8,4 v 3 h -8 v -3 h 8 M 510,72.05 q 0,-5 3.45,-8.55 3.6,-3.5 8.55,-3.5 5.05,0 8.5,3.5 3.5,3.5 3.5,8.55 0,1.85 -0.45,3.5 l 1.3,1.35 0.3,0.3 0.35,0.35 4.9,4.9 q 1.6,1.7 1.65,3.95 v 0.25 q -0.05,2.25 -1.65,3.8 -1.35,1.4 -3.15,1.65 l -0.8,0.05 -0.75,-0.05 q -1.8,-0.25 -3.25,-1.6 l -2.5,-2.5 v -0.05 l -4.25,-4.3 0.4,0.45 -0.55,-0.55 L 522,84 q -5,0 -8.55,-3.5 Q 510,77 510,72.05 m 6.35,-5.7 -0.05,0.05 q -2.25,2.3 -2.25,5.65 0,3.25 2.3,5.55 2.3,2.25 5.55,2.3 h 0.1 q 3.3,0 5.55,-2.3 h 0.05 q 2.3,-2.3 2.3,-5.55 V 71.9 q -0.05,-3.25 -2.3,-5.5 v -0.05 q -2.3,-2.25 -5.6,-2.25 -3.3,0 -5.65,2.25"
     style="fill:#000000;stroke:none;fill-opacity:1"
     id="path8842" />
  <path
     d="m 537,134 h -4 v 4 h 4 v -4 m -4,-16 q 0,1.7 -1.2,2.85 -1.15,1.15 -2.8,1.15 v 8 h 10 q 0.8,0 1.4,0.6 0.6,0.6 0.6,1.4 v 10 h -32 v -9.95 q 0,-0.85 0.55,-1.45 0.6,-0.6 1.45,-0.6 h 10 v -8 q -1.7,0 -2.85,-1.15 Q 517,119.65 517,118 v -4 q 0,-1.65 1.15,-2.8 1.2,-1.2 2.85,-1.2 h 8 q 1.65,0 2.8,1.2 1.2,1.2 1.2,2.8 v 4"
     style="fill:#000000;stroke:none;fill-opacity:1"
     id="path8836" />
  <path
     d="m 365.1,90 -0.45,-10.1 -5.65,-8.45 9.6,-3.55 6.45,-7.9 6.35,7.9 9.6,3.55 -5.65,8.45 L 384.8,90 375.05,87.35 365.1,90"
     style="fill:#000000;fill-opacity:1;stroke:none"
     id="path8834" />
  <path
     d="m 525.5,184 q -1.05,0 -1.8,0.75 -0.7,0.7 -0.7,1.75 0,1 0.7,1.75 0.75,0.75 1.8,0.75 1.05,0 1.75,-0.75 v 0.05 q 0.75,-0.75 0.75,-1.8 0,-1 -0.75,-1.75 h 0.05 Q 526.6,184 525.5,184 m -0.95,-22.75 q 0.95,-0.45 1.95,0 h 0.05 q 0.85,0.35 1.3,1.3 l 13.75,24.7 q 0.45,0.95 0.4,2 v 0.05 q -0.15,1.15 -0.9,1.85 h 0.05 q -0.8,0.85 -1.9,0.85 h -27.5 q -1.15,0 -1.9,-0.9 -0.7,-0.75 -0.85,-1.8 -0.15,-1.05 0.35,-2.05 h 0.05 l 13.75,-24.7 v -0.05 q 0.5,-0.9 1.35,-1.25 h 0.05 m -0.6,8.05 -0.4,0.3 Q 523,170.2 523,171.05 V 180 q 0,0.85 0.55,1.45 l 0.4,0.3 1,0.25 H 526 q 0.8,0 1.4,-0.55 0.6,-0.6 0.6,-1.45 v -9 q 0,-0.8 -0.6,-1.4 -0.6,-0.6 -1.4,-0.6 h -1.05 q -0.55,0 -1,0.3"
     style="fill:#000000;stroke:none;fill-opacity:1"
     id="path8824" />
  <path
     d="m 637.15,134.1 q -1.6,-1.35 -3.25,0 v 0.05 l -0.45,0.85 -0.05,0.1 -0.1,0.6 q 0,0.85 0.6,1.6 0.75,0.6 1.65,0.6 0.95,0 1.6,-0.6 0.75,-0.75 0.75,-1.6 l -0.1,-0.65 -0.6,-0.9 -0.05,-0.05 M 628,113.15 q 2.75,2.5 3.2,6.15 v 0.1 0.05 1.45 l -0.1,1.15 8.95,8.85 q 1.7,1.5 1.9,3.7 l 0.05,0.9 q 0,2.8 -1.9,4.65 l -0.05,0.05 q -1.75,1.8 -4.7,1.8 -2.65,0 -4.65,-1.8 v -0.05 l -5.95,-5.9 -0.15,-0.4 -2.95,-2.8 -2.65,-0.15 0.1,0.05 q -3.5,-0.55 -5.95,-2.9 V 128 q -3.55,-3.7 -3.1,-8.2 0.05,-1.45 0.6,-2.9 0.1,-0.3 0.35,-0.45 l 0.5,-0.1 0.4,0.25 5.7,5.7 1.1,0.6 1,-0.55 v -0.05 l 2.4,-2.5 q 0.75,-0.7 0.4,-1.5 l -0.45,-0.7 -5.7,-5.45 -0.2,-0.4 q -0.1,-0.3 0.05,-0.5 0.1,-0.25 0.35,-0.35 0.65,-0.35 1.25,-0.55 h 0.05 l 4.75,-0.15 q 3.1,0.55 5.45,2.95 H 628"
     style="fill:#000000;stroke:none;fill-opacity:1"
     id="path8818" />
  <path
     d="m 572.55,163.45 q 0.6,-0.7 1.4,-0.85 L 588,159.9 v 30 l -14.05,2.7 q -0.8,0.15 -1.4,-0.3 Q 572,191.8 572,190.95 V 165 q 0,-0.85 0.55,-1.55 m 5.85,14 q 0.6,-0.6 0.6,-1.45 0,-0.8 -0.6,-1.4 h 0.05 q -0.6,-0.6 -1.45,-0.6 -0.8,0 -1.4,0.6 -0.6,0.6 -0.6,1.4 0,0.85 0.6,1.45 0.55,0.55 1.4,0.55 0.85,0 1.4,-0.55 M 565,160 h 4.95 v 4 H 567 v 24 h 2.95 v 4 H 565 q -0.85,0 -1.45,-0.55 Q 563,190.85 563,190 v -27.95 q 0,-0.85 0.55,-1.45 0.6,-0.6 1.45,-0.6"
     style="fill:#000000;stroke:none;fill-opacity:1"
     id="path8814" />
  <path
     d="m 617,178 v 6 h 16 v -5.95 q 0,-0.85 0.55,-1.45 0.6,-0.6 1.45,-0.6 h 4 q 0.8,0 1.4,0.6 0.6,0.6 0.6,1.4 v 12 q 0,0.85 -0.6,1.45 -0.6,0.55 -1.4,0.55 h -28 q -0.85,0 -1.45,-0.55 Q 609,190.85 609,190 v -11.95 q 0,-0.85 0.55,-1.45 0.6,-0.6 1.45,-0.6 h 4 q 0.8,0 1.4,0.6 0.6,0.6 0.6,1.4 m 16,-10 v 4 l -8,8 -8,-8 v -4 h 4 v -8 h 8 v 8 h 4"
     style="fill:#000000;stroke:none;fill-opacity:1"
     id="path8810" />
  <path
     d="m 473.05,11.1 q 0.4,0 0.7,0.3 l 0.3,0.7 v 24 l -0.3,0.7 -0.7,0.3 q -0.4,0 -0.7,-0.3 l -12,-12 q -0.3,-0.3 -0.3,-0.7 0,-0.4 0.3,-0.7 l 12,-12 q 0.3,-0.3 0.7,-0.3 m 17,13 -0.3,0.7 -12,12 -0.7,0.3 q -0.4,0 -0.7,-0.3 -0.3,-0.3 -0.3,-0.7 v -24 q 0,-0.4 0.3,-0.7 0.3,-0.3 0.7,-0.3 0.4,0 0.7,0.3 l 12,12 0.3,0.7"
     style="fill:#000000;stroke:none;fill-opacity:1"
     id="path8808" />
  <path
     d="m 412.05,26.1 q 0,-0.4 0.3,-0.7 0.3,-0.3 0.7,-0.3 h 24 q 0.4,0 0.7,0.3 l 0.3,0.7 -0.3,0.7 -12,12 -0.7,0.3 -0.7,-0.3 -12,-12 q -0.3,-0.3 -0.3,-0.7 m 25.7,-4.7 0.3,0.7 -0.3,0.7 -0.7,0.3 h -24 l -0.7,-0.3 q -0.3,-0.3 -0.3,-0.7 0,-0.4 0.3,-0.7 l 12,-12 q 0.3,-0.3 0.7,-0.3 0.4,0 0.7,0.3 l 12,12"
     style="fill:#000000;stroke:none;fill-opacity:1"
     id="path8804" />
  <path
     d="m 426.05,74.1 h -8 v -4 h 8 v 4 m 4.45,-10.6 q 3.5,3.5 3.5,8.55 0,1.85 -0.45,3.5 l 1.3,1.35 0.3,0.3 0.35,0.35 4.9,4.9 q 1.6,1.7 1.65,3.95 v 0.25 q -0.05,2.25 -1.65,3.8 -1.35,1.4 -3.15,1.65 l -0.8,0.05 -0.75,-0.05 q -1.8,-0.25 -3.25,-1.6 l -2.5,-2.5 v -0.05 l -4.25,-4.3 0.4,0.45 -0.55,-0.55 L 422,84 q -5,0 -8.55,-3.5 Q 410,77 410,72.05 q 0,-5 3.45,-8.55 3.6,-3.5 8.55,-3.5 5.05,0 8.5,3.5 m -0.6,8.4 q -0.05,-3.25 -2.3,-5.5 v -0.05 q -2.3,-2.25 -5.6,-2.25 -3.3,0 -5.65,2.25 l -0.05,0.05 q -2.25,2.3 -2.25,5.65 0,3.25 2.3,5.55 2.3,2.25 5.55,2.3 h 0.1 q 3.3,0 5.55,-2.3 h 0.05 q 2.3,-2.3 2.3,-5.55 V 71.9"
     style="fill:#000000;stroke:none;fill-opacity:1"
     id="path8798" />
  <path
     d="m 466.35,66.35 -0.05,0.05 q -2.25,2.3 -2.25,5.65 0,3.25 2.3,5.55 2.3,2.25 5.55,2.3 h 0.1 q 3.3,0 5.55,-2.3 h 0.05 q 2.3,-2.3 2.3,-5.55 V 71.9 q -0.05,-3.25 -2.3,-5.5 v -0.05 q -2.3,-2.25 -5.6,-2.25 -3.3,0 -5.65,2.25 m 3.7,1.75 h 4 v 2 h 2 v 4 h -2 v 2 h -4 v -2 h -2 v -4 h 2 v -2 m 16.4,24.05 -0.75,-0.05 q -1.8,-0.25 -3.25,-1.6 l -6.75,-6.85 0.4,0.45 -0.55,-0.55 L 472,84 q -5,0 -8.55,-3.5 Q 460,77 460,72.05 q 0,-5 3.45,-8.55 3.6,-3.5 8.55,-3.5 5.05,0 8.5,3.5 3.5,3.5 3.5,8.55 0,1.85 -0.45,3.5 l 1.3,1.35 0.3,0.3 0.35,0.35 4.9,4.9 q 1.6,1.7 1.65,3.95 v 0.25 q -0.05,2.25 -1.65,3.8 -1.35,1.4 -3.15,1.65 l -0.8,0.05"
     style="fill:#000000;stroke:none;fill-opacity:1"
     id="path8794" />
  <path
     id="path8792"
     d="m 392,17 v 2 L 376,35 360,19 v -2 q 0,-0.85 0.55,-1.45 Q 361.15,15 362,15 h 27.95 q 0.85,0 1.45,0.55 0.6,0.6 0.6,1.45"
     style="fill:#000000;stroke:none;fill-opacity:1" />
  <path
     id="path8790"
     d="M 340.4,34.45 Q 339.8,35 338.95,35 H 311 q -0.85,0 -1.45,-0.55 Q 309,33.85 309,33 v -2 l 16,-16 16,16 v 2 q 0,0.85 -0.6,1.45"
     style="fill:#000000;stroke:none;fill-opacity:1" />
  <path
     id="path8786"
     d="m 341.4,72.6 q 0.6,0.6 0.6,1.4 v 4 q 0,0.85 -0.6,1.45 Q 340.8,80 340,80 h -28 q -0.85,0 -1.45,-0.55 Q 310,78.85 310,78 v -3.95 q 0,-0.85 0.55,-1.45 0.6,-0.6 1.45,-0.6 h 28 q 0.8,0 1.4,0.6"
     style="fill:#000000;stroke:none;fill-opacity:1" />
  <path
     d="m 330,136.95 v -4 h -8 v 4 h 2 v 4 h 4 v -4 h 2 m 4,-19 V 115 h 4 v 2.95 h -4 m 4,-7 v 4 h -4 v -4 h -16 v 14 h 24 v 18 q 0,0.85 -0.6,1.45 -0.6,0.55 -1.4,0.55 h -28 q -0.85,0 -1.45,-0.55 -0.55,-0.6 -0.55,-1.45 v -18 h 4 v -14 q 0,-1.65 1.15,-2.8 1.2,-1.2 2.85,-1.2 h 16 q 1.65,0 2.8,1.2 1.2,1.2 1.2,2.8"
     style="fill:#000000;stroke:none;fill-opacity:1"
     id="path8774" />
  <path
     d="m 360.05,134 h 4 v -4 h -4 v 4 m 16,-12 h -4 v 4 h 4 v -4 m -8,-4 h 12 v 12 h 12 v 12 h -36 v -16 h 12 v -8 m 16,16 v 4 h 4 v -4 h -4"
     style="fill:#000000;stroke:none;fill-opacity:1"
     id="path8772" />
  <path
     d="m 335.05,194.1 h -20 q -0.85,0 -1.45,-0.55 -0.55,-0.6 -0.55,-1.45 V 172 h 24 v 20.1 q 0,0.85 -0.6,1.45 -0.6,0.55 -1.4,0.55 m -5,-32 h 5 q 0.8,0 1.4,0.6 0.6,0.6 0.6,1.4 v 5.9 h -24 v -5.85 q 0,-0.85 0.55,-1.45 0.6,-0.6 1.45,-0.6 h 5 v -0.95 q 0,-0.85 0.55,-1.45 0.6,-0.6 1.45,-0.6 h 6 q 0.8,0 1.4,0.6 0.6,0.6 0.6,1.4 v 1"
     style="fill:#000000;stroke:none;fill-opacity:1"
     id="path8766" />
  <path
     d="M 363.05,192.1 V 172 h 24 v 20.1 q 0,0.85 -0.6,1.45 -0.6,0.55 -1.4,0.55 h -20 q -0.85,0 -1.45,-0.55 -0.55,-0.6 -0.55,-1.45 m -1.35,-29.25 q 0.4,-0.8 1.2,-1 l 4.85,-1.3 -0.2,-0.9 q -0.25,-0.85 0.15,-1.55 0.4,-0.75 1.25,-0.95 l 5.8,-1.55 q 0.75,-0.2 1.5,0.25 0.7,0.35 0.9,1.15 l 0.25,0.95 4.85,-1.25 q 0.75,-0.25 1.55,0.2 0.7,0.4 0.9,1.2 l 1.5,5.7 -23.15,6.2 -1.5,-5.65 q -0.2,-0.85 0.15,-1.5"
     style="fill:#000000;stroke:none;fill-opacity:1"
     id="path8764" />
  <path
     d="m 465,122 h -2 v 8 h 2 v -8 m 22,0 h -2 v 8 h 2 v -8 m 4,-2 v 10 q 0,1.7 -1.2,2.85 -1.15,1.15 -2.8,1.15 h -8 v 4 h 6 q 0.8,0 1.4,0.6 0.6,0.6 0.6,1.4 v 2 h -24 v -1.95 q 0,-0.85 0.55,-1.45 0.6,-0.6 1.45,-0.6 h 6 v -4 h -8 q -1.7,0 -2.85,-1.15 Q 459,131.65 459,130 v -9.95 q 0,-0.85 0.55,-1.45 0.6,-0.6 1.45,-0.6 h 4 v -4 h 20 v 4 h 4 q 0.8,0 1.4,0.6 0.6,0.6 0.6,1.4"
     style="fill:#000000;stroke:none;fill-opacity:1"
     id="path8762" />
  <path
     d="m 424,118 v 1.35 h 1.45 V 125 H 427 v -7 h -3 m -5.2,14.1 q 0,-1 -0.7,-1.6 -0.65,-0.5 -1.55,-0.5 -0.9,0 -1.45,0.4 -0.6,0.35 -1.1,1.1 l 1.25,0.75 q 0.6,-0.95 1.2,-0.95 l 0.6,0.2 0.25,0.6 -0.3,0.75 -0.85,0.95 -2,2.05 V 137 H 419 v -1.4 h -2.75 l 1.25,-1.25 1,-1.25 0.3,-1 m 19.2,2.6 q 0,-0.75 -0.45,-1.3 -0.45,-0.55 -1.3,-0.7 l 1.45,-1.6 V 130 h -4.3 v 1.35 h 2.2 l -1.35,1.55 v 1.1 l 0.95,-0.15 q 0.6,0 0.95,0.25 0.35,0.25 0.35,0.7 l -0.3,0.65 -0.8,0.2 q -0.75,0 -1.75,-0.7 L 433,136.2 q 1.2,0.8 2.35,0.8 1.15,0 1.9,-0.6 0.75,-0.6 0.75,-1.7 m -5.6,-21.1 q 0.6,0.6 0.6,1.4 v 11 h 8 q 0.8,0 1.4,0.6 0.6,0.6 0.6,1.4 v 11 q 0,0.85 -0.6,1.45 -0.6,0.55 -1.4,0.55 h -30 q -0.85,0 -1.45,-0.55 Q 409,139.85 409,139 v -10.95 q 0,-0.85 0.55,-1.45 0.6,-0.6 1.45,-0.6 h 7 v -10.95 q 0,-0.85 0.55,-1.45 0.6,-0.6 1.45,-0.6 h 11 q 0.8,0 1.4,0.6"
     style="fill:#000000;stroke:none;fill-opacity:1"
     id="path8754" />
  <path
     d="m 421,188 q 0,-1.65 1.15,-2.8 1.2,-1.2 2.85,-1.2 1.7,0 2.85,1.2 h -0.05 q 1.2,1.2 1.2,2.8 0,1.7 -1.2,2.9 v -0.05 q -1.15,1.15 -2.8,1.15 -1.7,0 -2.85,-1.15 Q 421,189.65 421,188 m 7.4,-25.4 q 0.6,0.6 0.6,1.4 v 15 q 0,0.85 -0.6,1.45 -0.6,0.55 -1.4,0.55 h -4 q -0.85,0 -1.45,-0.55 Q 421,179.85 421,179 v -14.95 q 0,-0.85 0.55,-1.45 0.6,-0.6 1.45,-0.6 h 4 q 0.8,0 1.4,0.6"
     style="fill:#000000;stroke:none;fill-opacity:1"
     id="path8750" />
  <path
     d="m 475.4,184 q 1.9,0 3.25,1.25 1.35,1.3 1.35,3.2 0,1.9 -1.35,3.25 -1.35,1.3 -3.25,1.3 -1.8,0 -3.1,-1.3 -1.3,-1.3 -1.3,-3.25 0,-1.9 1.3,-3.2 1.3,-1.25 3.1,-1.25 m -2.05,-12.15 q -0.35,0.3 -0.85,0.3 h -6.35 l -0.6,-0.2 -0.45,-0.45 -0.1,-0.75 q 0.4,-4.6 3.25,-7.15 2.8,-2.6 7.05,-2.6 4.25,0 6.95,2.3 2.75,2.45 2.75,6.7 0,2.05 -0.55,3 l -0.55,1.05 h 0.05 l -0.9,1.35 -0.05,0.05 -0.8,0.9 v 0.05 l -1.85,1.8 -0.75,0.85 h -0.3 v 0.05 h 0.3 l -0.2,0.25 -0.1,0.85 v 0.6 0.1 l -0.35,0.8 -0.9,0.3 h -6.1 l -0.85,-0.3 q -0.35,-0.35 -0.4,-0.8 v -2.8 h 0.15 q 0.1,-0.9 0.4,-1.45 0.45,-0.95 2,-2.6 l 2.7,-2.7 0.25,-1.1 -0.35,-1.1 q -0.25,-0.35 -0.7,-0.3 -0.45,0 -0.8,0.4 v -0.05 q -0.45,0.7 -0.55,1.85 l -0.45,0.8"
     style="fill:#000000;stroke:none;fill-opacity:1"
     id="path8746" />
  <path
     d="m 461,242 q -0.85,0 -1.45,-0.55 Q 459,240.85 459,240 v -11.95 q 0,-0.85 0.55,-1.45 0.6,-0.6 1.45,-0.6 h 4 q 0.8,0 1.4,0.6 0.6,0.6 0.6,1.4 v 12 q 0,0.85 -0.6,1.45 -0.6,0.55 -1.4,0.55 h -4 m 17.4,-23.4 q 0.6,0.6 0.6,1.4 v 20 q 0,0.85 -0.6,1.45 -0.6,0.55 -1.4,0.55 h -4 q -0.85,0 -1.45,-0.55 Q 471,240.85 471,240 v -19.95 q 0,-0.85 0.55,-1.45 0.6,-0.6 1.45,-0.6 h 4 q 0.8,0 1.4,0.6"
     style="fill:#000000;stroke:none;fill-opacity:1"
     id="path8742" />
  <path
     d="m 417,228 v 12 q 0,0.85 -0.6,1.45 -0.6,0.55 -1.4,0.55 h -4 q -0.85,0 -1.45,-0.55 Q 409,240.85 409,240 v -11.95 q 0,-0.85 0.55,-1.45 0.6,-0.6 1.45,-0.6 h 4 q 0.8,0 1.4,0.6 0.6,0.6 0.6,1.4"
     style="fill:#000000;stroke:none;fill-opacity:1"
     id="path8740" />
  <path
     d="m 428.55,270.5 -1.8,2.15 2.8,10.45 h 8.5 q 1.2,0 2.1,0.9 0.9,0.9 0.9,2.1 v 6.85 l -0.3,0.7 -0.7,0.3 h -28 l -0.7,-0.3 q -0.3,-0.3 -0.3,-0.7 v -6.8 q 0,-1.25 0.85,-2.1 V 284 q 0.9,-0.9 2.15,-0.9 h 9.3 l -2.4,-8.9 q -1.35,-0.2 -2.7,-0.95 -2.65,-1.55 -3.45,-4.55 -0.8,-2.95 0.7,-5.7 1.65,-2.65 4.65,-3.45 3,-0.8 5.65,0.7 2.7,1.6 3.5,4.55 0.8,3 -0.75,5.7"
     style="fill:#000000;stroke:none;fill-opacity:1"
     id="path8738" />
  <path
     d="m 476.1,260.25 q 2.75,-1.5 5.75,-0.7 3,0.8 4.55,3.45 1.6,2.75 0.8,5.7 -0.8,3 -3.55,4.55 -1.25,0.75 -2.6,0.95 l -2.35,8.9 h 9.35 q 1.2,0 2.1,0.9 0.9,0.9 0.9,2.1 v 6.85 l -0.3,0.7 q -0.3,0.3 -0.7,0.3 h -28 l -0.7,-0.3 q -0.3,-0.3 -0.3,-0.7 v -6.8 q 0,-1.25 0.85,-2.1 V 284 q 0.9,-0.9 2.15,-0.9 h 8.4 l 2.8,-10.45 q -1.1,-0.85 -1.9,-2.15 -1.45,-2.7 -0.65,-5.7 0.8,-2.95 3.4,-4.55"
     style="fill:#000000;stroke:none;fill-opacity:1"
     id="path8736" />
  <path
     d="m 378.65,210.3 0.3,0.7 v 17 l -0.3,0.7 -0.7,0.3 h -4 l -0.7,-0.3 q -0.3,-0.3 -0.3,-0.7 v -17 q 0,-0.4 0.3,-0.7 0.3,-0.3 0.7,-0.3 h 4 q 0.4,0 0.7,0.3 m 8.25,4.15 0.85,0.75 v 0.05 q 4.85,4.85 4.85,11.75 0,6.9 -4.85,11.7 l -0.05,0.05 q -4.8,4.85 -11.7,4.85 -6.9,0 -11.75,-4.85 -4.85,-4.85 -4.85,-11.75 0,-6.75 4.65,-11.55 l 0.2,-0.25 0.8,-0.7 q 0.3,-0.25 0.75,-0.2 0.4,0 0.65,0.35 l 2.55,3.05 0.25,0.7 -0.35,0.7 -0.4,0.35 -0.15,0.15 q -2.95,3.1 -2.95,7.4 0,4.4 3.1,7.5 3.1,3.1 7.5,3.1 4.3,0 7.35,-2.95 l 0.15,-0.15 0.15,-0.15 q 2.95,-3.05 2.95,-7.35 0,-4.4 -3.1,-7.5 h -0.05 l -0.45,-0.45 -0.35,-0.7 q 0,-0.4 0.25,-0.7 l 2.6,-3.05 q 0.25,-0.35 0.7,-0.35 l 0.7,0.2"
     style="fill:#000000;stroke:none;fill-opacity:1"
     id="path8732" />
  <path
     id="path8728"
     d="m 334.85,258 q 2.95,0 5.05,2.05 2.1,2.1 2.1,5.15 0,2.95 -2.1,5.05 -2.1,2.1 -5.05,2.1 -3,0 -5.1,-2.1 l -0.55,-0.6 -7,4.85 0.15,1.45 -0.25,1.9 7.05,4.5 0.6,-0.7 q 2.1,-2.1 5.1,-2.1 2.95,0 5.05,2.1 2.1,2.1 2.1,5.1 0,3 -2.1,5.1 -2.1,2.1 -5.05,2.1 -3,0 -5.1,-2.1 -2.05,-2.1 -2.05,-5.1 l 0.1,-1.05 -7.5,-4.75 -0.1,0.1 q -2.1,2.1 -5.05,2.1 -3,0 -5.1,-2.1 -2.05,-2.1 -2.05,-5.1 0,-3 2.05,-5.1 2.1,-2.1 5.1,-2.1 2.95,0 5.05,2.1 l 0.4,0.4 7.2,-4.9 -0.1,-1.15 q 0,-3.05 2.05,-5.15 2.1,-2.05 5.1,-2.05"
     style="fill:#000000;stroke:none;fill-opacity:1" />
  <path
     d="m 361.05,292.95 v -6.8 q 0,-1.25 0.85,-2.1 V 284 q 0.9,-0.9 2.15,-0.9 H 373 v -9.7 q -1.25,-0.55 -2.35,-1.6 -2.15,-2.2 -2.15,-5.3 0,-3.1 2.15,-5.3 2.25,-2.2 5.35,-2.2 3.1,0 5.3,2.2 2.2,2.2 2.2,5.3 0,3.1 -2.2,5.3 -1.05,1.05 -2.3,1.6 v 9.7 h 9.05 q 1.2,0 2.1,0.9 0.9,0.9 0.9,2.1 v 6.85 l -0.3,0.7 -0.7,0.3 h -28 l -0.7,-0.3 q -0.3,-0.3 -0.3,-0.7"
     style="fill:#000000;stroke:none;fill-opacity:1"
     id="path8726" />
  <path
     d="M 374.4,320 H 372 v 11 h 7 v -2.2 h -4.6 V 320 m 19.55,-6.05 v 24 h -38 v -19 q 0,-5 5,-5 h 33"
     style="fill:#000000;stroke:none;fill-opacity:1"
     id="path8720" />
  <path
     d="m 340.75,318.65 q 1.25,2.9 1.25,6.35 0,3.45 -1.25,6.35 -1.15,2.7 -3.45,4.95 -4.65,4.7 -11.3,4.7 -6.65,0 -11.35,-4.7 Q 310,331.65 310,325 q 0,-6.65 4.65,-11.35 4.7,-4.65 11.35,-4.65 6.65,0 11.3,4.65 2.3,2.3 3.45,5 m -11.35,2.5 v -2.05 h -8.1 v 2.55 h 4.15 l -2.55,3 v 2.2 l 1.75,-0.4 q 1.2,0 1.85,0.5 0.65,0.5 0.65,1.3 0,0.85 -0.55,1.3 -0.6,0.4 -1.5,0.4 -1.45,0 -3.35,-1.3 l -1.2,2.35 q 2.25,1.55 4.45,1.55 2.2,0 3.6,-1.2 1.45,-1.2 1.45,-3.25 0,-1.4 -0.9,-2.5 -0.85,-1.05 -2.45,-1.35 l 2.7,-3.1"
     style="fill:#000000;stroke:none;fill-opacity:1"
     id="path8718" />
  <path
     d="m 479.5,320.75 h -3.95 v 1.9 h 1.85 v 7.9 h 2.1 v -9.8 m -8.95,0 h -2.2 v 9.8 h 6.35 v -1.95 h -4.15 v -7.85 m -14.6,-1.8 q 0,-5 5,-5 h 33 v 24 h -38 v -19"
     style="fill:#000000;stroke:none;fill-opacity:1"
     id="path8712" />
  <path
     d="M 424.9,321 H 421 v 11 h 2.35 v -3.5 h 1.55 l 2.25,3.5 H 430 l -2.6,-3.95 q 2,-0.75 2,-3.4 0,-1.95 -1.05,-2.75 -1.05,-0.9 -3.45,-0.9 m -1.55,2.15 h 1.7 l 1.55,0.3 q 0.4,0.3 0.4,1.2 0,0.9 -0.4,1.3 -0.4,0.45 -1.6,0.45 h -1.65 v -3.25 m 20.6,-4.2 v 19 h -38 v -24 h 33 q 5,0 5,5"
     style="fill:#000000;stroke:none;fill-opacity:1"
     id="path8706" />
  <path
     d="M 639,215.2 617.45,221 H 640 v 19 q 0,0.85 -0.6,1.45 -0.6,0.55 -1.4,0.55 h -26 q -0.85,0 -1.45,-0.55 Q 610,240.85 610,240 v -17 l -1.8,-6.7 q -0.25,-0.85 0.15,-1.55 0.45,-0.75 1.25,-1 l 25.1,-6.7 1.5,0.2 q 0.75,0.4 1,1.2 l 1.8,6.75"
     style="fill:#000000;stroke:none;fill-opacity:1"
     id="path8704" />
  <path
     d="m 581,289 q 0,-1.65 1.15,-2.85 1.2,-1.15 2.85,-1.15 1.65,0 2.8,1.15 1.2,1.2 1.2,2.85 0,1.65 -1.2,2.8 -1.15,1.2 -2.8,1.2 -1.65,0 -2.85,-1.2 Q 581,290.65 581,289 m -14,0 q 0,-1.65 1.15,-2.85 1.2,-1.15 2.85,-1.15 1.65,0 2.8,1.15 1.2,1.2 1.2,2.85 0,1.65 -1.2,2.8 -1.15,1.2 -2.8,1.2 -1.65,0 -2.85,-1.2 Q 567,290.65 567,289 m 23.75,-24.85 0.05,0.05 q 1.1,1.2 0.9,2.85 v 0.1 l -2.5,13.25 -0.05,0.05 q -0.2,1.2 -1.5,2.05 l -0.15,0.05 -2,0.45 h -15 q -1.25,0 -2.05,-0.5 h -0.05 q -1.35,-0.85 -1.55,-2.05 v -0.05 l -2.3,-12.45 H 560 q -0.4,0 -0.7,-0.3 -0.3,-0.3 -0.3,-0.7 v -2.9 -0.1 q 0,-0.4 0.3,-0.7 0.3,-0.3 0.7,-0.3 h 11.95 l 0.3,0.05 H 588 q 1.65,0 2.75,1.15"
     style="fill:#000000;stroke:none;fill-opacity:1"
     id="path8686" />
  <path
     d="m 614.4,291.65 q -0.55,-0.35 -0.6,-0.85 l -2.45,-13 q -0.15,-0.7 0.3,-1.25 0.5,-0.55 1.35,-0.55 h 26 q 0.8,0 1.3,0.55 0.5,0.55 0.4,1.2 l -2.45,13.05 -0.65,0.85 q -0.55,0.35 -1.2,0.35 h -20.8 l -1.2,-0.35 m 17.7,-29.8 7,7 q 0.85,0.85 0.85,2.1 0,1.25 -0.85,2.15 -0.9,0.85 -2.15,0.85 -1.25,0 -2.1,-0.85 l -7,-7 q -0.9,-0.9 -0.9,-2.15 0,-1.25 0.9,-2.1 0.85,-0.9 2.1,-0.9 1.25,0 2.15,0.9 m -7.15,2.1 q 0,1.25 -0.85,2.15 l -7,7 q -0.9,0.85 -2.15,0.85 -1.25,0 -2.1,-0.85 -0.9,-0.9 -0.9,-2.15 0,-1.25 0.9,-2.1 l 7,-7 q 0.85,-0.9 2.1,-0.9 1.25,0 2.15,0.9 0.85,0.85 0.85,2.1"
     style="fill:#000000;stroke:none;fill-opacity:1"
     id="path8680" />
  <path
     d="m 561.95,228 h 3.95 v -5 h -3.95 v 5 m 0,6 v 5 h 3.95 v -5 h -3.95 m 3.95,-16 v -5 h -3.95 v 5 h 3.95 m 15.05,21 v -11 h -12 v 11 h 12 m 3,-11 h 3.95 v -5 h -3.95 v 5 m 0,11 h 3.95 v -5 h -3.95 v 5 m -15,-26 v 12 h 12 v -12 h -12 M 591,212 v 28 q 0,0.85 -0.6,1.45 -0.6,0.55 -1.4,0.55 h -28 q -0.85,0 -1.45,-0.55 Q 559,240.85 559,240 v -27.95 q 0,-0.85 0.55,-1.45 0.6,-0.6 1.45,-0.6 h 28 q 0.8,0 1.4,0.6 0.6,0.6 0.6,1.4 m -3.1,1 h -3.95 v 5 h 3.95 v -5"
     style="fill:#000000;stroke:none;fill-opacity:1"
     id="path8670" />
  <path
     d="m 517,228 v 12 q 0,0.85 -0.6,1.45 -0.6,0.55 -1.4,0.55 h -4 q -0.85,0 -1.45,-0.55 Q 509,240.85 509,240 v -11.95 q 0,-0.85 0.55,-1.45 0.6,-0.6 1.45,-0.6 h 4 q 0.8,0 1.4,0.6 0.6,0.6 0.6,1.4 m 11.4,-9.4 q 0.6,0.6 0.6,1.4 v 20 q 0,0.85 -0.6,1.45 -0.6,0.55 -1.4,0.55 h -4 q -0.85,0 -1.45,-0.55 Q 521,240.85 521,240 v -19.95 q 0,-0.85 0.55,-1.45 0.6,-0.6 1.45,-0.6 h 4 q 0.8,0 1.4,0.6 M 535,210 h 4 q 0.8,0 1.4,0.6 0.6,0.6 0.6,1.4 v 28 q 0,0.85 -0.6,1.45 -0.6,0.55 -1.4,0.55 h -4 q -0.85,0 -1.45,-0.55 Q 533,240.85 533,240 v -27.95 q 0,-0.85 0.55,-1.45 0.6,-0.6 1.45,-0.6"
     style="fill:#000000;stroke:none;fill-opacity:1"
     id="path8668" />
  <path
     d="M 515.05,271.95 H 520 v 3.75 q 0.05,2.5 1.65,4.3 1.8,2.05 4.35,2 2.6,0.05 4.4,-2.05 l -0.1,0.15 q 1.7,-1.85 1.7,-4.4 v -3.75 h 5.05 v -9.85 h -22 v 9.85 m 8.8,-6 q 0.9,-0.95 2.15,-0.95 1.25,0 2.1,0.95 0.9,0.95 0.9,2.3 v 7.45 q 0,1.35 -0.9,2.3 -0.85,1 -2.1,1 -1.25,0 -2.15,-1 -0.85,-0.95 -0.85,-2.3 v -7.45 q 0,-1.35 0.85,-2.3 M 512.6,259.7 q 0.6,-0.6 1.45,-0.6 h 24 q 0.8,0 1.4,0.6 0.6,0.6 0.6,1.4 v 18.85 H 540 q 0,5.8 -4.1,9.85 -4.05,4.1 -9.85,4.1 H 526 q -5.8,0 -9.9,-4.1 -4.05,-4.05 -4.05,-9.85 v -18.8 q 0,-0.85 0.55,-1.45"
     style="fill:#000000;stroke:none;fill-opacity:1"
     id="path8662" />
  <path
     d="m 527.55,322.65 v 7.9 h 2.1 v -9.8 h -3.95 v 1.9 h 1.85 m -4.35,-1.1 q -0.95,-0.8 -3.25,-0.8 h -3.7 v 9.8 h 2.2 v -3.1 h 1.5 l 2.15,3.1 h 2.7 l -2.45,-3.5 q 1.85,-0.7 1.85,-3.05 0,-1.7 -1,-2.45 m -1.25,2.45 q 0,0.8 -0.4,1.2 l -1.5,0.35 h -1.6 v -2.9 h 1.6 q 1.1,0 1.5,0.3 0.4,0.3 0.4,1.05 m 22,-5.05 v 19 h -38 v -24 h 33 q 5,0 5,5"
     style="fill:#000000;stroke:none;fill-opacity:1"
     id="path8648" />
  <path
     id="path8644"
     d="M 284.45,9.6 Q 285,10.2 285,11.05 V 39 q 0,0.85 -0.55,1.45 Q 283.85,41 283,41 h -2 L 265,25 281,9 h 2 q 0.85,0 1.45,0.6"
     style="fill:#000000;stroke:none;fill-opacity:1" />
  <path
     d="m 577.95,320.55 q -1.3,0 -2.1,0.55 -0.8,0.55 -1.5,1.6 l 1.75,1.05 q 0.8,-1.35 1.75,-1.35 0.5,0 0.8,0.35 0.35,0.3 0.35,0.8 0,0.5 -0.4,1.05 l -1.2,1.4 -2.9,2.9 v 1.65 h 6.9 v -1.95 h -3.85 l 1.75,-1.85 1.45,-1.75 0.35,-1.45 q 0,-1.4 -0.95,-2.2 -0.95,-0.8 -2.2,-0.8 m -11,0.2 v 9.8 h 6.35 v -1.95 h -4.15 v -7.85 h -2.2 m -11,-1.8 q 0,-5 5,-5 h 33 v 24 h -38 v -19"
     style="fill:#000000;stroke:none;fill-opacity:1"
     id="path8642" />
  <path
     d="m 621.8,321.55 q -0.95,-0.8 -3.25,-0.8 h -3.7 v 9.8 h 2.2 v -3.1 h 1.5 l 2.15,3.1 h 2.7 l -2.45,-3.5 q 1.85,-0.7 1.85,-3.05 0,-1.7 -1,-2.45 m -3.15,1.1 1.5,0.3 q 0.4,0.3 0.4,1.05 0,0.8 -0.4,1.2 -0.4,0.35 -1.5,0.35 h -1.6 v -2.9 h 1.6 m 25.3,-3.7 v 19 h -38 v -24 h 33 q 5,0 5,5 m -13.65,2.4 q -0.95,-0.8 -2.2,-0.8 -1.3,0 -2.1,0.55 -0.8,0.55 -1.5,1.6 l 1.75,1.05 q 0.8,-1.35 1.75,-1.35 0.5,0 0.8,0.35 0.35,0.3 0.35,0.8 0,0.5 -0.4,1.05 l -1.2,1.4 -2.9,2.9 v 1.65 h 6.9 v -1.95 h -3.85 l 1.75,-1.85 1.45,-1.75 0.35,-1.45 q 0,-1.4 -0.95,-2.2"
     style="fill:#000000;stroke:none;fill-opacity:1"
     id="path8638" />
  <path
     d="m 280.05,80.1 h 4 l 4,4 v -4 h 4 v 12 h -12 v -4 h 4 l -4,-4 v -4 m -20,0 h 4 v 4 l 4,-4 h 4 v 4 l -4,4 h 4 v 4 h -12 v -12 m 20,-12 4,-4 h -4 v -4 h 12 v 12 h -4 v -4 l -4,4 h -4 v -4 m -16,0 v 4 h -4 v -12 h 12 v 4 h -4 l 4,4 v 4 h -4 l -4,-4"
     style="fill:#000000;stroke:none;fill-opacity:1"
     id="path8630" />
  <path
     id="path8628"
     d="M 215.55,9.6 Q 216.15,9 217,9 h 2 l 16,16 -16,16 h -2 q -0.85,0 -1.45,-0.55 Q 215,39.85 215,39 V 11.05 q 0,-0.85 0.55,-1.45"
     style="fill:#000000;stroke:none;fill-opacity:1" />
  <path
     id="path8626"
     d="m 188.4,24.55 q 0.6,0.6 0.6,1.45 v 2 L 175,42 161,28 v -2 q 0,-0.85 0.55,-1.45 Q 162.15,24 163,24 h 6 V 10 Q 169,9.15 169.55,8.55 170.15,8 171,8 h 7.95 q 0.85,0 1.45,0.55 0.6,0.6 0.6,1.45 v 14 h 5.95 q 0.85,0 1.45,0.55"
     style="fill:#000000;stroke:none;fill-opacity:1" />
  <path
     id="path8624"
     d="m 190.05,69.85 q 0,0.8 -0.65,1.4 l -10.05,10.1 4.25,4.3 q 0.6,0.6 0.65,1.45 -0.05,0.85 -0.65,1.5 L 182.2,90 H 162.05 V 69.85 l 1.4,-1.45 q 0.6,-0.6 1.5,-0.65 0.85,0.05 1.45,0.65 l 4.35,4.35 10.05,-10.1 q 0.6,-0.6 1.4,-0.65 0.85,0.05 1.45,0.65 l 5.7,5.7 q 0.6,0.65 0.7,1.5"
     style="fill:#000000;stroke:none;fill-opacity:1" />
  <path
     d="m 238.05,84.1 4,4 v 4 h -4 l -4,-4 v 4 h -4 v -12 h 12 v 4 h -4 m -28,-4 h 12 v 12 h -4 v -4 l -4,4 h -4 v -4 l 4,-4 h -4 v -4 m 12,-20 v 12 h -12 v -4 h 4 l -4,-4 v -4 h 4 l 4,4 v -4 h 4 m 20,0 v 4 l -4,4 h 4 v 4 h -12 v -12 h 4 v 4 l 4,-4 h 4"
     style="fill:#000000;stroke:none;fill-opacity:1"
     id="path8616" />
  <path
     d="m 213,138 h 24 v -12 h -24 v 12 m 28,-20 v 24 h -32 v -32 h 24 l 8,8 m -14,2 v -4 h 4 v 4 h -4 m 6,-6 h -16 v 8 h 16 v -8"
     style="fill:#000000;stroke:none;fill-opacity:1"
     id="path8608" />
  <path
     id="path8606"
     d="m 189.45,119.15 1.05,1.95 0.05,0.1 q 3.15,6.25 -0.55,12.75 -3.7,6.8 -11.05,7.05 -0.6,0.05 -1.1,-0.35 -0.45,-0.4 -0.5,-1.05 -0.55,-3.6 -0.45,-5.3 0.05,-0.6 0.4,-1.05 0.4,-0.45 1.05,-0.45 3.05,-0.25 4.6,-2.85 L 182.9,130 q 1.5,-2.5 0.4,-5 -1.45,-3.4 -4.9,-3.6 h -0.05 q -2.45,-0.05 -4.2,1.7 2.45,1.4 3.45,2.3 0.4,0.35 0.5,0.85 l -0.05,1 -0.7,0.75 -13.9,8.05 -1.1,0.15 q -0.55,-0.05 -0.95,-0.5 l -0.35,-1 0.05,-16.3 0.2,-0.85 0.6,-0.6 0.05,-0.05 0.75,-0.2 0.75,0.2 3.5,2 q 1.9,-2.55 4.25,-3.9 v -0.05 q 4.75,-2.85 9.9,-1.55 4.95,1.2 8.2,5.6 l 0.15,0.15"
     style="fill:#000000;stroke:none;fill-opacity:1" />
  <path
     id="path8604"
     d="m 172.05,191 h -6 q -0.85,0 -1.45,-0.55 -0.55,-0.6 -0.55,-1.45 v -10 h -4 v -4 l 16,-16 16,16 v 4 h -4 v 10 q 0,0.85 -0.6,1.45 -0.6,0.55 -1.4,0.55 h -6 v -12 h -8 v 12"
     style="fill:#000000;stroke:none;fill-opacity:1" />
  <path
     id="path8602"
     d="m 238,163.9 v 15.1 0.35 q -0.3,2.75 -2,4.5 h -0.1 q -1.8,2 -4.25,2.2 h -0.05 q -2.55,0.25 -4.25,-1.55 -1.65,-1.6 -1.4,-4.3 0.25,-2.4 2,-4.2 1.7,-1.7 3.7,-2 H 233 v -5 h -10 v 17 q 0.1,1.9 -2.05,3.8 l -0.05,0.15 q -1.8,1.75 -4.15,2 h -0.05 q -2.6,0.25 -4.25,-1.45 -1.7,-1.65 -1.4,-4.2 0.2,-2.5 1.95,-4.35 l 0.1,-0.05 q 1.65,-1.6 3.6,-2 h 0.05 L 219,180 v -16 q -0.1,-3.1 2.45,-3 H 235 q 3,0 3,2.9"
     style="fill:#000000;stroke:none;fill-opacity:1" />
  <path
     style="fill:#000000;fill-opacity:1"
     d="m 278,133.95 h 2 v -4 h -8 v 4 h 2 v 4 h 4 v -4 m 14,-12 v 18 q 0,0.85 -0.6,1.45 -0.6,0.55 -1.4,0.55 h -28 q -0.85,0 -1.45,-0.55 -0.55,-0.6 -0.55,-1.45 v -18 h 4 v -8 q 0,-1.65 1.15,-2.8 1.2,-1.2 2.85,-1.2 h 16 q 1.65,0 2.8,1.2 1.2,1.2 1.2,2.8 v 8 h 4 m -8,-8 h -16 v 8 h 16 v -8"
     id="path8596" />
  <path
     d="m 275.95,180.65 5.45,5.45 q -2.45,0.1 -4.05,-1.6 -1.5,-1.45 -1.4,-3.85 m -12.95,1.3 0.1,-0.05 q 1.65,-1.6 3.6,-2 h 0.05 L 269,180 v -6.3 l 4,4 v 8.3 q 0.1,1.9 -2.05,3.8 l -0.05,0.15 q -1.8,1.75 -4.15,2 h -0.05 q -2.6,0.25 -4.25,-1.45 -1.7,-1.65 -1.4,-4.2 0.2,-2.5 1.95,-4.35 m 1.5,-18.4 q 0.6,-0.6 1.45,-0.6 0.85,0 1.4,0.6 l 23,23 q 0.6,0.55 0.6,1.4 0,0.85 -0.6,1.45 -0.55,0.55 -1.4,0.55 -0.85,0 -1.45,-0.55 l -23,-23 q -0.55,-0.6 -0.55,-1.45 0,-0.85 0.55,-1.4 m 4.7,-1.05 q 0.45,-1.55 2.25,-1.5 H 285 q 3,0 3,2.9 v 15.1 0.35 l -0.3,1.65 -6.8,-6.8 0.75,-0.2 H 283 v -5 h -7.3 l -6.5,-6.5"
     style="fill:#000000;stroke:none;fill-opacity:1"
     id="path8588" />
  <path
     id="path8586"
     d="m 90,19 q 0.85,0 1.45,0.6 Q 92,20.2 92,21.05 V 29 q 0,0.85 -0.55,1.45 Q 90.85,31 90,31 H 76 v 6 q 0,0.85 -0.55,1.45 Q 74.85,39 74,39 H 72 L 58,25 72,11 h 2 q 0.85,0 1.45,0.6 Q 76,12.2 76,13.05 V 19 h 14"
     style="fill:#000000;stroke:none;fill-opacity:1" />
  <path
     id="path8584"
     d="m 139,22 v 2 q 0,0.85 -0.6,1.45 Q 137.8,26 136.95,26 H 131 v 14 q 0,0.85 -0.6,1.45 Q 129.8,42 128.95,42 H 121 q -0.85,0 -1.45,-0.55 Q 119,40.85 119,40 V 26 h -6 q -0.85,0 -1.45,-0.55 Q 111,24.85 111,24 v -2 l 14,-14 14,14"
     style="fill:#000000;stroke:none;fill-opacity:1" />
  <path
     id="path8582"
     d="m 118.4,62.7 q 0.6,-0.6 1.45,-0.65 0.85,0 1.45,0.6 l 10.05,10.1 4.3,-4.3 q 0.6,-0.6 1.45,-0.65 0.9,0.05 1.5,0.65 l 1.45,1.45 v 20.15 h -20.2 l -1.4,-1.45 q -0.6,-0.6 -0.65,-1.45 0.05,-0.85 0.65,-1.5 l 4.3,-4.3 -10.05,-10.1 q -0.6,-0.6 -0.65,-1.35 0.05,-0.9 0.65,-1.5 l 5.7,-5.7"
     style="fill:#000000;stroke:none;fill-opacity:1" />
  <path
     id="path8580"
     d="M 87.05,84.3 Q 86.2,84.25 85.6,83.6 L 81.25,79.3 71.2,89.35 Q 70.6,90 69.8,90.05 68.95,90 68.35,89.35 l -5.7,-5.7 Q 62.05,83.05 62,82.2 62,81.4 62.6,80.75 L 72.65,70.7 68.4,66.4 q -0.6,-0.6 -0.65,-1.45 0.05,-0.9 0.65,-1.5 l 1.4,-1.4 H 90 V 82.2 l -1.45,1.4 q -0.6,0.65 -1.5,0.7"
     style="fill:#000000;stroke:none;fill-opacity:1" />
  <path
     id="path8578"
     d="m 574,113.05 q 0,-0.85 0.55,-1.45 0.6,-0.6 1.45,-0.6 h 2 l 14,14 -14,14 h -2 q -0.85,0 -1.45,-0.55 Q 574,137.85 574,137 v -6 h -14 q -0.85,0 -1.45,-0.55 Q 558,129.85 558,129 v -7.95 q 0,-0.85 0.55,-1.45 0.6,-0.6 1.45,-0.6 h 14 v -5.95"
     style="fill:#000000;fill-opacity:1;stroke:none" />
  <path
     id="path8576"
     d="m 29.2,70.7 10.1,10.1 q 0.6,0.6 0.65,1.45 0,0.8 -0.6,1.4 L 33.6,89.4 Q 33,90 32.15,90.05 31.3,90 30.7,89.4 L 20.6,79.3 16.3,83.6 q -0.6,0.6 -1.45,0.7 -0.85,0 -1.45,-0.6 l -1.45,-1.45 v -20.2 h 20.2 l 1.45,1.45 q 0.6,0.6 0.6,1.45 -0.05,0.8 -0.65,1.4 L 29.2,70.7"
     style="fill:#000000;stroke:none;fill-opacity:1" />
  <path
     id="path8574"
     d="m 66.55,117.6 q 0.6,0.05 1.05,0.5 l 5,6 10,-11.85 q 0.35,-0.45 0.95,-0.55 0.6,-0.05 1.05,0.35 l 5.95,5.1 q 0.45,0.35 0.5,0.95 0.05,0.6 -0.3,1.1 l -17,20.3 -0.7,0.45 h -0.8 L 71.5,139.5 59.45,125.1 q -0.4,-0.5 -0.35,-1.05 0.05,-0.65 0.5,-1 l 5.9,-5.1 q 0.5,-0.4 1.05,-0.35"
     style="fill:#000000;stroke:none;fill-opacity:1" />
  <path
     id="path8572"
     d="m 26,110 16,16 -16,16 h -4 v -8 h -4 v 4 h -8 v -16 q 0,-1.65 1.15,-2.8 1.2,-1.2 2.85,-1.2 h 8 v -8 h 4"
     style="fill:#000000;stroke:none;fill-opacity:1" />
  <path
     d="m 32.05,164.1 h -15 v 20 h 15 v -20 m 5.1,-5.1 q 0.9,0.9 0.9,2.1 v 28 q 0,1.25 -0.9,2.15 v 0.05 q -0.9,0.8 -2.1,0.8 h -21 q -1.25,0 -2.1,-0.8 l -0.05,-0.05 q -0.85,-0.9 -0.85,-2.15 v -27.95 q 0,-1.25 0.85,-2.1 V 159 q 0.9,-0.9 2.15,-0.9 h 21 q 1.2,0 2.1,0.9"
     style="fill:#000000;stroke:none;fill-opacity:1"
     id="path8568" />
  <path
     d="m 69.05,164.1 v 20 h 11 v -20 h -11 M 63.9,159.05 V 159 q 0.9,-0.9 2.15,-0.9 h 17 q 1.2,0 2.1,0.9 0.9,0.9 0.9,2.1 v 28 q 0,1.25 -0.9,2.15 v 0.05 q -0.9,0.8 -2.1,0.8 h -17 q -1.25,0 -2.1,-0.8 l -0.05,-0.05 q -0.85,-0.9 -0.85,-2.15 v -27.95 q 0,-1.25 0.85,-2.1"
     style="fill:#000000;stroke:none;fill-opacity:1"
     id="path8564" />
  <path
     d="m 112.7,164.4 v -0.05 q 4.7,-4.65 11.3,-4.65 l 1,0.05 q 5.95,0.3 10.3,4.65 4.7,4.7 4.7,11.3 0,6.65 -4.7,11.35 -4.35,4.3 -10.3,4.65 h -1 q -6.6,0 -11.3,-4.65 -4.7,-4.7 -4.7,-11.35 0,-6.6 4.65,-11.3 h 0.05 m 12.3,1.35 -1,-0.05 v 20.05 l 1,-0.05 q 3.5,-0.3 6.1,-2.9 h 0.05 q 2.9,-2.9 2.9,-7.1 0,-4.15 -2.9,-7.1 -2.65,-2.55 -6.15,-2.85"
     style="fill:#000000;stroke:none;fill-opacity:1"
     id="path8558" />
  <path
     d="m 159,210 h 2 l 14,14 v -11.95 q 0,-0.85 0.55,-1.45 0.6,-0.6 1.45,-0.6 h 2 l 16,16 -16,16 h -2 q -0.85,0 -1.45,-0.55 Q 175,240.85 175,240 v -12 l -14,14 h -2 q -0.85,0 -1.45,-0.55 Q 157,240.85 157,240 v -27.95 q 0,-0.85 0.55,-1.45 0.6,-0.6 1.45,-0.6"
     style="fill:#000000;stroke:none;fill-opacity:1"
     id="path8556" />
  <path
     d="m 139.4,211.6 q 0.6,0.6 0.6,1.4 v 26 q 0,0.85 -0.6,1.45 -0.6,0.55 -1.4,0.55 h -26 q -0.85,0 -1.45,-0.55 Q 110,239.85 110,239 v -25.95 q 0,-0.85 0.55,-1.45 0.6,-0.6 1.45,-0.6 h 26 q 0.8,0 1.4,0.6"
     style="fill:#000000;stroke:none;fill-opacity:1"
     id="path8554" />
  <path
     d="m 135.3,279.3 q 0.3,-0.3 0.7,-0.3 h 8 q 0.4,0 0.7,0.3 l 0.3,0.7 v 8 l -0.3,0.7 q -0.3,0.3 -0.7,0.3 h -5 v 2 h 5 q 0.4,0 0.7,0.3 l 0.3,0.7 v 2 l -0.3,0.7 q -0.3,0.3 -0.7,0.3 h -8 q -0.4,0 -0.7,-0.3 -0.3,-0.3 -0.3,-0.7 v -8 q 0,-0.4 0.3,-0.7 0.3,-0.3 0.7,-0.3 h 5 v -2 h -5 q -0.4,0 -0.7,-0.3 -0.3,-0.3 -0.3,-0.7 v -2 q 0,-0.4 0.3,-0.7 m -5.15,-8.05 1,-0.75 q 0.35,-0.6 0.2,-1.25 -0.15,-0.65 -0.8,-0.95 l -1.25,-0.2 q -0.65,0.15 -0.95,0.8 -0.3,0.55 -0.15,1.2 0.15,0.65 0.75,1 l 1.2,0.15 m 5.95,-4.4 q -0.65,-0.4 -1.25,-0.25 -0.7,0.2 -1,0.8 -0.3,0.6 -0.15,1.25 0.15,0.65 0.75,0.95 l 1.25,0.15 q 0.6,-0.15 1,-0.7 0.3,-0.6 0.15,-1.25 -0.15,-0.65 -0.75,-0.95 m -17,-8.6 0.8,-0.2 1.25,0.2 q 0.55,0.35 0.75,1 l 1.05,3.9 12.6,-3.35 1.2,0.15 q 0.6,0.3 0.75,0.95 l 3.4,12.5 -0.15,1.25 -1,0.75 -28.35,7.5 -1.2,-0.15 q -0.6,-0.3 -0.75,-0.95 l -3.4,-12.45 q -0.15,-0.7 0.15,-1.3 0.35,-0.55 1,-0.75 l 12.6,-3.35 -1.05,-3.9 q -0.2,-0.65 0.15,-1.2 l 0.25,-0.4 -0.05,-0.2 m -3.15,13.4 -0.8,-3.1 -3.15,0.8 0.8,3.1 -3.15,0.85 0.85,3.1 3.15,-0.85 0.85,3.15 3.15,-0.8 -0.85,-3.15 3.1,-0.85 -0.85,-3.1 -3.1,0.85"
     style="fill:#000000;stroke:none;fill-opacity:1"
     id="path8532" />
  <path
     d="m 77.05,210.1 q 0.8,0 1.4,0.6 0.6,0.6 0.6,1.4 v 28 q 0,0.85 -0.6,1.45 -0.6,0.55 -1.4,0.55 h -2 l -12,-12 h -4 v -8 h 4 l 12,-12 h 2 m 6.8,10.05 2.3,-3.3 1.5,1.3 0.05,0.05 q 3.3,3.35 3.3,8.05 0,4.75 -3.3,8.05 l -0.1,0.1 -1.45,1.25 -2.3,-3.3 0.9,-0.75 0.05,-0.05 q 2.2,-2.2 2.2,-5.3 0,-3.05 -2.2,-5.25 l -0.05,-0.1 -0.9,-0.75"
     style="fill:#000000;stroke:none;fill-opacity:1"
     id="path8528" />
  <path
     d="m 27.05,210.1 q 0.8,0 1.4,0.6 0.6,0.6 0.6,1.4 v 28 q 0,0.85 -0.6,1.45 -0.6,0.55 -1.4,0.55 h -2 l -12,-12 h -4 v -8 h 4 l 12,-12 h 2"
     style="fill:#000000;stroke:none;fill-opacity:1"
     id="path8526" />
  <path
     d="m 69.05,270.8 -3.1,0.85 -0.8,-3.1 -3.15,0.8 0.8,3.1 -3.15,0.85 0.85,3.1 3.15,-0.85 0.85,3.15 3.15,-0.8 -0.85,-3.15 3.1,-0.85 -0.85,-3.1 M 96,280 v 14 l -0.3,0.7 -0.7,0.3 h -2 l -0.7,-0.3 Q 92,294.4 92,294 V 283 H 90 L 89.3,282.7 89,282 v -2 q 0,-0.4 0.3,-0.7 0.3,-0.3 0.7,-0.3 h 5 q 0.4,0 0.7,0.3 L 96,280 m -9.25,-20.05 q 0.6,0.3 0.75,0.95 l 3.4,12.5 -0.15,1.25 -1,0.75 -28.35,7.5 -1.2,-0.15 q -0.6,-0.3 -0.75,-0.95 l -3.4,-12.45 q -0.15,-0.7 0.15,-1.3 0.35,-0.55 1,-0.75 l 12.6,-3.35 -1.05,-3.9 q -0.2,-0.65 0.15,-1.2 l 0.25,-0.4 -0.05,-0.2 0.8,-0.2 1.25,0.2 q 0.55,0.35 0.75,1 l 1.05,3.9 12.6,-3.35 1.2,0.15 m -3.05,8.7 q 0.15,0.65 0.75,0.95 l 1.25,0.15 1,-0.7 0.15,-1.25 q -0.15,-0.65 -0.75,-0.95 -0.65,-0.4 -1.25,-0.25 -0.7,0.2 -1,0.8 -0.3,0.6 -0.15,1.25 m -2.55,1.85 q 0.35,-0.6 0.2,-1.25 -0.15,-0.65 -0.8,-0.95 l -1.25,-0.2 q -0.65,0.15 -0.95,0.8 -0.3,0.55 -0.15,1.2 0.15,0.65 0.75,1 l 1.2,0.15 1,-0.75"
     style="fill:#000000;stroke:none;fill-opacity:1"
     id="path8524" />
  <path
     d="M 23.55,261.6 24,261.25 V 261 h 1 q 0.8,0 1.4,0.6 0.6,0.6 0.6,1.4 v 5 h 16 q 0.8,0 1.4,0.6 0.6,0.6 0.6,1.4 v 16 q 0,0.85 -0.6,1.45 Q 43.8,288 43,288 H 7 Q 6.15,288 5.55,287.45 5,286.85 5,286 V 270.05 Q 5,269.2 5.55,268.6 6.15,268 7,268 h 16 v -4.95 q 0,-0.85 0.55,-1.45 M 16,272 h -4 v 3.95 H 8 v 4 h 4 v 4 h 4 v -4 h 3.95 v -4 H 16 V 272 m 24,4 q -0.85,0 -1.45,0.6 -0.55,0.6 -0.55,1.4 0,0.85 0.55,1.4 0.6,0.6 1.45,0.6 0.8,0 1.4,-0.6 0.6,-0.55 0.6,-1.4 0,-0.8 -0.6,-1.4 Q 40.8,276 40,276 m -8.45,0.6 Q 31,277.2 31,278 q 0,0.85 0.55,1.4 0.6,0.6 1.45,0.6 0.8,0 1.4,-0.6 0.6,-0.55 0.6,-1.4 0,-0.8 -0.6,-1.4 -0.6,-0.6 -1.4,-0.6 -0.85,0 -1.45,0.6"
     style="fill:#000000;stroke:none;fill-opacity:1"
     id="path8516" />
  <path
     d="M 76.85,319 H 72 v 13 h 5.5 q 2.55,0 3.6,-1.2 0.9,-1.05 0.9,-2.4 0,-1.25 -0.7,-2.05 -0.7,-0.85 -1.85,-1.1 l 0.45,-0.2 0.45,-0.35 q 0.95,-0.7 0.95,-2.25 0,-1.25 -0.85,-2.25 L 79.1,319.35 76.85,319 m -2.05,2.5 h 1.3 l 1.8,0.25 q 0.5,0.3 0.5,1.15 0,0.85 -0.55,1.15 l -1.75,0.25 h -1.3 v -2.8 m 1.65,5.1 2,0.25 q 0.7,0.25 0.7,1.2 0,0.85 -0.65,1.2 l -1.8,0.3 h -1.9 v -2.95 h 1.65 M 76,309 q 6.65,0 11.3,4.65 4.7,4.7 4.7,11.35 0,6.65 -4.7,11.3 Q 82.65,341 76,341 69.35,341 64.65,336.3 60,331.65 60,325 60,318.35 64.65,313.65 69.35,309 76,309"
     style="fill:#000000;stroke:none;fill-opacity:1"
     id="path8506" />
  <path
     d="m 24.35,325.7 1.65,-3.85 1.6,3.85 H 24.35 M 37.3,313.65 q 4.7,4.7 4.7,11.35 0,6.65 -4.7,11.3 Q 32.65,341 26,341 19.35,341 14.65,336.3 10,331.65 10,325 10,318.35 14.65,313.65 19.35,309 26,309 q 6.65,0 11.3,4.65 M 27.35,318 H 24.6 L 19,331 h 3.05 l 1.2,-2.8 h 5.45 l 1.2,2.8 H 33 l -5.65,-13"
     style="fill:#000000;stroke:none;fill-opacity:1"
     id="path8502" />
  <path
     d="m 311,212 q 0,-0.8 0.6,-1.4 0.6,-0.6 1.4,-0.6 h 4 q 0.85,0 1.45,0.6 0.55,0.6 0.55,1.45 V 226 240 q 0,0.85 -0.55,1.45 -0.6,0.55 -1.45,0.55 h -4 q -0.8,0 -1.4,-0.55 -0.6,-0.6 -0.6,-1.45 v -28 m 26,-2 q 0.85,0 1.45,0.6 0.55,0.6 0.55,1.45 V 240 q 0,0.85 -0.55,1.45 -0.6,0.55 -1.45,0.55 h -2 l -16,-16 16,-16 h 2"
     style="fill:#000000;stroke:none;fill-opacity:1"
     id="path8498" />
  <path
     d="m 132.65,319 h -3.6 l -2.55,3.85 -2.6,-3.85 h -3.6 l 4.25,6.35 L 120,332 h 3.6 l 2.9,-4.25 2.85,4.25 H 133 l -4.5,-6.7 4.15,-6.3 m 4.65,-5.35 q 4.7,4.7 4.7,11.35 0,6.65 -4.7,11.3 -4.65,4.7 -11.3,4.7 -6.65,0 -11.35,-4.7 Q 110,331.65 110,325 q 0,-6.65 4.65,-11.35 4.7,-4.65 11.35,-4.65 6.65,0 11.3,4.65"
     style="fill:#000000;stroke:none;fill-opacity:1"
     id="path8496" />
  <path
     d="m 288.4,210.6 q 0.6,0.6 0.6,1.4 v 28 q 0,0.85 -0.6,1.45 -0.6,0.55 -1.4,0.55 h -4 q -0.85,0 -1.45,-0.55 Q 281,240.85 281,240 v -14 l -16,16 h -2 q -0.85,0 -1.45,-0.55 Q 261,240.85 261,240 v -27.95 q 0,-0.85 0.55,-1.45 0.6,-0.6 1.45,-0.6 h 2 l 16,16 v -13.95 q 0,-0.85 0.55,-1.45 0.6,-0.6 1.45,-0.6 h 4 q 0.8,0 1.4,0.6"
     style="fill:#000000;stroke:none;fill-opacity:1"
     id="path8494" />
  <path
     d="m 244.45,210.6 q 0.55,0.6 0.55,1.45 V 240 q 0,0.85 -0.55,1.45 -0.6,0.55 -1.45,0.55 h -2 l -14,-14 v 12 q 0,0.85 -0.55,1.45 -0.6,0.55 -1.45,0.55 h -2 l -16,-16 16,-16 h 2 q 0.85,0 1.45,0.6 0.55,0.6 0.55,1.45 V 224 l 14,-14 h 2 q 0.85,0 1.45,0.6"
     style="fill:#000000;stroke:none;fill-opacity:1"
     id="path8492" />
  <path
     d="m 273,262 h 16 q 0.4,0 0.7,0.3 l 0.3,0.7 v 16 l -0.3,0.7 -0.7,0.3 -0.7,-0.3 -3.3,-3.3 -7.3,7.3 -0.7,0.3 -0.7,-0.3 -8,-8 q -0.3,-0.3 -0.3,-0.7 0,-0.4 0.3,-0.7 l 7.3,-7.3 -3.3,-3.3 q -0.3,-0.3 -0.3,-0.7 0,-0.4 0.3,-0.7 0.3,-0.3 0.7,-0.3 m -4,9 h -4 v 16 h 16 v -4 h 4 v 6 q 0,0.85 -0.55,1.45 H 284.4 Q 283.8,291 283,291 h -20 q -0.85,0 -1.45,-0.55 Q 261,289.85 261,289 v -19.95 q 0,-0.85 0.55,-1.45 0.6,-0.6 1.45,-0.6 h 6 v 4"
     style="fill:#000000;stroke:none;fill-opacity:1"
     id="path8488" />
  <path
     d="m 194.7,279.3 0.3,0.7 v 14 l -0.3,0.7 -0.7,0.3 h -8 l -0.7,-0.3 Q 185,294.4 185,294 v -2 q 0,-0.4 0.3,-0.7 0.3,-0.3 0.7,-0.3 h 5 v -2 h -5 l -0.7,-0.3 Q 185,288.4 185,288 v -2 q 0,-0.4 0.3,-0.7 0.3,-0.3 0.7,-0.3 h 5 v -2 h -5 l -0.7,-0.3 Q 185,282.4 185,282 v -2 q 0,-0.4 0.3,-0.7 0.3,-0.3 0.7,-0.3 h 8 q 0.4,0 0.7,0.3 m -11,-10.65 q 0.15,0.65 0.75,0.95 l 1.25,0.15 1,-0.7 0.15,-1.25 q -0.15,-0.65 -0.75,-0.95 -0.65,-0.4 -1.25,-0.25 -0.7,0.2 -1,0.8 -0.3,0.6 -0.15,1.25 m -2.35,0.6 q -0.15,-0.65 -0.8,-0.95 l -1.25,-0.2 q -0.65,0.15 -0.95,0.8 -0.3,0.55 -0.15,1.2 0.15,0.65 0.75,1 l 1.2,0.15 q 0.65,-0.2 1,-0.75 0.35,-0.6 0.2,-1.25 m -21.7,4.05 0.85,3.1 3.15,-0.85 0.85,3.15 3.15,-0.8 -0.85,-3.15 3.1,-0.85 -0.85,-3.1 -3.1,0.85 -0.8,-3.1 -3.15,0.8 0.8,3.1 -3.15,0.85 m -3.6,-3.95 q -0.15,-0.7 0.15,-1.3 0.35,-0.55 1,-0.75 l 12.6,-3.35 -1.05,-3.9 q -0.2,-0.65 0.15,-1.2 l 0.25,-0.4 -0.05,-0.2 0.8,-0.2 1.25,0.2 q 0.55,0.35 0.75,1 l 1.05,3.9 12.6,-3.35 1.2,0.15 q 0.6,0.3 0.75,0.95 l 3.4,12.5 -0.15,1.25 q -0.4,0.55 -1,0.75 l -28.35,7.5 -1.2,-0.15 q -0.6,-0.3 -0.75,-0.95 l -3.4,-12.45"
     style="fill:#000000;stroke:none;fill-opacity:1"
     id="path8480" />
  <path
     d="m 228.2,270.1 q 0.15,0.65 0.75,1 l 1.2,0.15 1,-0.75 q 0.35,-0.6 0.2,-1.25 -0.15,-0.65 -0.8,-0.95 l -1.25,-0.2 q -0.65,0.15 -0.95,0.8 -0.3,0.55 -0.15,1.2 m 8.55,-10.15 q 0.6,0.3 0.75,0.95 l 3.4,12.5 -0.15,1.25 -1,0.75 -28.35,7.5 -1.2,-0.15 q -0.6,-0.3 -0.75,-0.95 l -3.4,-12.45 q -0.15,-0.7 0.15,-1.3 0.35,-0.55 1,-0.75 l 12.6,-3.35 -1.05,-3.9 q -0.2,-0.65 0.15,-1.2 l 0.25,-0.4 -0.05,-0.2 0.8,-0.2 1.25,0.2 q 0.55,0.35 0.75,1 l 1.05,3.9 12.6,-3.35 1.2,0.15 m -2.3,9.65 1.25,0.15 1,-0.7 0.15,-1.25 q -0.15,-0.65 -0.75,-0.95 -0.65,-0.4 -1.25,-0.25 -0.7,0.2 -1,0.8 -0.3,0.6 -0.15,1.25 0.15,0.65 0.75,0.95 m -15.4,1.2 -3.1,0.85 -0.8,-3.1 -3.15,0.8 0.8,3.1 -3.15,0.85 0.85,3.1 3.15,-0.85 0.85,3.15 3.15,-0.8 -0.85,-3.15 3.1,-0.85 -0.85,-3.1 m 25.65,23.9 q -0.3,0.3 -0.7,0.3 h -2 q -0.4,0 -0.7,-0.3 -0.3,-0.3 -0.3,-0.7 v -5 h -5 q -0.4,0 -0.7,-0.3 -0.3,-0.3 -0.3,-0.7 v -8 q 0,-0.4 0.3,-0.7 0.3,-0.3 0.7,-0.3 h 2 q 0.4,0 0.7,0.3 l 0.3,0.7 v 5 h 2 v -5 q 0,-0.4 0.3,-0.7 0.3,-0.3 0.7,-0.3 h 2 q 0.4,0 0.7,0.3 l 0.3,0.7 v 14 l -0.3,0.7"
     style="fill:#000000;stroke:none;fill-opacity:1"
     id="path8472" />
  <path
     d="m 222.25,319.1 v 2.55 h 2.5 v 10.75 h 2.85 v -13.3 h -5.35 m 15.05,-5.45 q 4.7,4.7 4.7,11.35 0,6.65 -4.7,11.3 -4.65,4.7 -11.3,4.7 -6.65,0 -11.35,-4.7 Q 210,331.65 210,325 q 0,-6.65 4.65,-11.35 4.7,-4.65 11.35,-4.65 6.65,0 11.3,4.65"
     style="fill:#000000;stroke:none;fill-opacity:1"
     id="path8466" />
  <path
     d="m 176,309 q 6.65,0 11.3,4.65 4.7,4.7 4.7,11.35 0,6.65 -4.7,11.3 -4.65,4.7 -11.3,4.7 -6.65,0 -11.35,-4.7 Q 160,331.65 160,325 q 0,-6.65 4.65,-11.35 Q 169.35,309 176,309 m -2.4,10.1 h -3.2 l 4.6,8.05 v 5.25 h 2.95 v -5.25 l 4.6,-8.05 h -3.2 l -2.9,4.95 -2.85,-4.95"
     style="fill:#000000;stroke:none;fill-opacity:1"
     id="path8464" />
  <path
     d="m 278.45,319.9 q -1.3,-1.1 -3,-1.1 -1.7,0 -2.85,0.75 -1.1,0.75 -2.05,2.2 l 2.4,1.4 q 1.1,-1.8 2.35,-1.8 0.7,0 1.15,0.45 0.45,0.45 0.45,1.1 0,0.7 -0.5,1.4 l -1.7,1.9 -3.9,4 v 2.2 h 9.35 v -2.65 h -5.25 l 2.4,-2.5 1.95,-2.4 q 0.5,-0.95 0.5,-1.95 0,-1.9 -1.3,-3 m 8.85,16.4 q -4.65,4.7 -11.3,4.7 -6.65,0 -11.35,-4.7 Q 260,331.65 260,325 q 0,-6.65 4.65,-11.35 4.7,-4.65 11.35,-4.65 6.65,0 11.3,4.65 4.7,4.7 4.7,11.35 0,6.65 -4.7,11.3"
     style="fill:#000000;stroke:none;fill-opacity:1"
     id="path4" />
  <path
     id="path9588"
     d="m 737.7,371.45 q 3.8,0.6 6.65,3.4 3.6,3.55 3.6,8.6 l -0.3,2.7 -0.3,0.5 -0.6,0.2 q -20.8,5.55 -37.9,0 l -0.45,-0.1 -0.35,-0.3 q -1.1,-1.7 -1.1,-3.85 0,-3 2.15,-5.1 1.5,-1.45 3.4,-1.95 0.4,-4.55 3.8,-7.9 3.85,-3.8 9.35,-3.8 5.45,0 9.35,3.8 1.75,1.75 2.7,3.8"
     style="fill:#000000;stroke:none" />
  <path
     id="path9586"
     d="m 745.05,418.25 q 3.2,5.95 0.5,10.45 -2.45,4.55 -9.3,4.75 l 0.05,0.05 q -2.85,0.1 -5.8,-0.7 l -4.45,7.7 q -0.85,1.45 -2.45,1.9 h -0.1 q -1.6,0.3 -2.95,-0.45 l -5.2,-3 q -1.4,-0.85 -1.85,-2.3 l -0.05,-0.2 q -0.35,-1.55 0.45,-2.95 l 4.45,-7.7 q -2.15,-2.15 -3.5,-4.7 -3.15,-5.95 -0.45,-10.4 2.5,-4.6 9.25,-4.8 6.05,-0.25 12.3,3.4 6.3,3.6 9.1,8.95"
     style="fill:#000000;stroke:none" />
  <path
     id="path9584"
     d="m 696.75,386.85 q -6.6,1.75 -12.8,2.4 v -8.4 h 3 l 0.7,-0.25 0.3,-0.75 v -1 l -7,-7 -7,7 v 1 q 0,0.45 0.3,0.75 l 0.7,0.25 h 3 v 8.8 q -10.05,0.15 -19.1,-2.8 l -0.45,-0.1 -0.35,-0.3 q -1.1,-1.7 -1.1,-3.85 0,-3 2.15,-5.1 1.5,-1.45 3.4,-1.95 0.4,-4.55 3.8,-7.9 3.85,-3.8 9.35,-3.8 5.45,0 9.35,3.8 1.75,1.75 2.7,3.8 3.8,0.6 6.65,3.4 3.6,3.55 3.6,8.6 l -0.3,2.7 -0.3,0.5 -0.6,0.2"
     style="fill:#000000;stroke:none" />
  <path
     id="path9582"
     d="m 689.1,421.1 q -1.35,2.6 -3.5,4.7 l 4.45,7.7 q 0.85,1.45 0.45,3.1 l -0.1,0.1 q -0.5,1.5 -1.85,2.25 l -5.2,3 q -1.4,0.85 -2.95,0.5 l -0.15,-0.1 q -1.55,-0.45 -2.35,-1.85 l -4.45,-7.7 q -2.95,0.85 -5.8,0.7 -6.75,-0.25 -9.25,-4.8 -2.7,-4.5 0.45,-10.4 2.85,-5.35 9.1,-9 6.3,-3.6 12.3,-3.35 6.8,0.15 9.3,4.75 2.75,4.45 -0.5,10.45 l 0.05,-0.05"
     style="fill:#000000;stroke:none" />
  <path
     d="m 716,457.85 q 0.4,0 0.7,0.3 l 0.3,0.7 v 32.2 l -0.3,0.7 -0.7,0.3 h -4.15 l -0.7,-0.3 q -0.3,-0.3 -0.3,-0.7 v -32.2 q 0,-0.4 0.3,-0.7 0.3,-0.3 0.7,-0.3 H 716 m 4.55,1.4 q 10.85,7.25 22.5,8.35 0.4,0.05 0.65,0.35 l 0.25,0.65 v 0.6 l -0.2,0.65 q -9.75,12.1 -23.8,10.9 -0.4,-0.05 -0.65,-0.3 -0.3,-0.3 -0.3,-0.7 v -19.7 q 0,-0.35 0.25,-0.65 0.25,-0.3 0.65,-0.35 0.35,-0.05 0.65,0.2"
     style="fill:#000000;stroke:none"
     id="path9578" />
  <path
     id="path9576"
     d="m 687.75,473.35 q -0.4,0.65 -1.1,0.9 l -4.3,1.6 4.55,8.15 0.25,1 -0.35,0.95 -0.75,0.7 -6.6,3 -1.35,0.1 q -0.75,-0.25 -1.1,-0.8 l -5.25,-8.1 -3.5,2.85 q -0.65,0.45 -1.35,0.4 -0.7,-0.05 -1.25,-0.55 -0.55,-0.55 -0.55,-1.3 l -0.15,-21.5 q 0,-0.75 0.5,-1.25 0.45,-0.5 1.1,-0.6 0.75,-0.15 1.35,0.25 l 19.15,11.7 q 0.65,0.4 0.85,1.15 l -0.15,1.35"
     style="fill:#000000;stroke:none" />
  <path
     id="path9574"
     d="m 682.95,507.7 -6,5 v -3 q -6.1,0 -10.4,4.15 l -0.3,0.3 q -3.75,3.65 -4.3,8.7 h 3 v 4 h -7.2 l 0.05,-2 q 0,-6.25 3.45,-11 0.9,-1.35 2.15,-2.55 2.1,-2.1 4.55,-3.45 l 0.1,-0.05 q 2.95,-1.55 6.35,-1.95 l 2.55,-0.15 v -3 l 6,5"
     style="fill:#000000;stroke:none" />
  <path
     id="path9572"
     d="m 714.95,522.85 v 4 h -3 q 0.55,5.05 4.3,8.75 4.4,4.4 10.7,4.4 v -3 l 6,5 -6,5 v -3 q -8,0 -13.55,-5.55 -5.6,-5.6 -5.6,-13.6 0,-0.85 0.6,-1.4 0.55,-0.6 1.4,-0.6 h 5.15"
     style="fill:#000000;stroke:none" />
  <path
     id="path9570"
     d="m 745.55,573.45 q 0.55,0.55 0.55,1.4 0,8 -5.55,13.6 -5.6,5.55 -13.6,5.55 v 3 l -6,-5 6,-5 v 3 q 6.3,0 10.75,-4.4 3.7,-3.7 4.3,-8.75 h -3.2 v -4 h 5.3 q 0.85,0 1.45,0.6"
     style="fill:#000000;stroke:none" />
  <path
     id="path9568"
     d="m 696.15,576.85 h -7.35 v -4 h 3.2 q -0.6,-5.05 -4.3,-8.7 -4.45,-4.45 -10.75,-4.45 v 3 l -6,-5 6,-5 v 3 q 8,0 13.6,5.6 5.55,5.55 5.55,13.55 l 0.05,2"
     style="fill:#000000;stroke:none" />
  <path
     id="path9566"
     d="m 707.8,674.85 -0.05,-2 h 7.35 v 4 h -3.15 l 0.15,0.95 q 0.75,4.45 4.15,7.8 4.4,4.4 10.7,4.4 6.3,0 10.75,-4.4 3.35,-3.35 4.15,-7.8 l 0.25,-2.95 h -3 l 5,-6 5,6 h -3 l -0.2,2.95 q -0.85,6.1 -5.35,10.65 -5.6,5.55 -13.6,5.55 -8,0 -13.55,-5.55 -4.55,-4.55 -5.4,-10.65 l -0.2,-2.95"
     style="fill:#000000;stroke:none" />
  <path
     id="path9564"
     d="m 726.95,605.7 2,-0.05 V 613 h -4 v -3.15 q -5.05,0.55 -8.7,4.3 -4.45,4.4 -4.45,10.7 0,6.3 4.45,10.75 4.4,4.4 10.7,4.4 v -3 l 6,5 -6,5 v -3 q -8,0 -13.55,-5.55 -5.6,-5.6 -5.6,-13.6 0,-8 5.6,-13.55 5.55,-5.6 13.55,-5.6"
     style="fill:#000000;stroke:none" />
  <path
     id="path9562"
     d="M 678.95,609.85 V 613 h -4 v -7.35 l 2,0.05 q 8,0 13.6,5.6 5.55,5.55 5.55,13.55 0,8 -5.55,13.6 l -0.25,0.25 h -0.05 q -5.55,5.3 -13.3,5.3 v 3 l -6,-5 6,-5 v 3 q 6.1,0 10.5,-4.15 l 0.05,-0.05 0.2,-0.2 q 4.4,-4.45 4.4,-10.75 0,-6.3 -4.4,-10.7 -3.7,-3.75 -8.75,-4.3"
     style="fill:#000000;stroke:none" />
  <path
     id="path9560"
     d="m 696.15,676.85 h -7.35 v -4 h 3.2 q -0.6,-5.05 -4.3,-8.7 -4.45,-4.45 -10.75,-4.45 -6.3,0 -10.7,4.45 -4.45,4.4 -4.45,10.7 h 3 l -5,6 -5,-6 h 3 q 0,-8 5.6,-13.55 5.55,-5.6 13.55,-5.6 8,0 13.6,5.6 5.55,5.55 5.55,13.55 l 0.05,2"
     style="fill:#000000;stroke:none" />
  <path
     d="m 610.5,394.3 q -0.55,-0.6 -0.55,-1.45 v -3.95 q 0,-0.85 0.55,-1.45 0.6,-0.6 1.45,-0.6 h 28 q 0.8,0 1.4,0.6 0.6,0.6 0.6,1.4 v 4 q 0,0.85 -0.6,1.45 -0.6,0.55 -1.4,0.55 h -28 q -0.85,0 -1.45,-0.55 m 28.85,-26.9 q 0.6,0.6 0.6,1.45 v 2 l -14,14 -14,-14 v -2 q 0,-0.85 0.55,-1.45 0.6,-0.55 1.45,-0.55 h 6 v -8 q 0,-0.85 0.55,-1.45 0.6,-0.55 1.45,-0.55 h 7.95 q 0.85,0 1.45,0.55 0.6,0.6 0.6,1.45 v 8 h 5.95 q 0.85,0 1.45,0.55"
     style="fill:#000000;stroke:none"
     id="path9556" />
  <path
     d="m 591.95,392.85 q 0,0.85 -0.6,1.45 -0.6,0.55 -1.4,0.55 h -28 q -0.85,0 -1.45,-0.55 -0.55,-0.6 -0.55,-1.45 v -3.95 q 0,-0.85 0.55,-1.45 0.6,-0.6 1.45,-0.6 h 28 q 0.8,0 1.4,0.6 0.6,0.6 0.6,1.4 v 4 m -2,-20 q 0,0.85 -0.6,1.45 -0.6,0.55 -1.45,0.55 h -5.95 v 8 q 0,0.85 -0.6,1.45 -0.6,0.55 -1.45,0.55 h -7.95 q -0.85,0 -1.45,-0.55 -0.55,-0.6 -0.55,-1.45 v -8 h -6 q -0.85,0 -1.45,-0.55 -0.55,-0.6 -0.55,-1.45 v -2 l 14,-14 14,14 v 2"
     style="fill:#000000;stroke:none"
     id="path9552" />
  <path
     d="m 573.8,414.35 v 9.1 h 5.9 v -1.8 h -3.85 v -7.3 h -2.05 m 21.15,4.55 q 0.15,5.2 -5.65,8.75 h 0.05 q -2.45,1.55 -5.4,2.35 v 8.85 q 0,1.7 -1.15,2.9 l -0.1,0.05 q -1.2,1.05 -2.75,1.05 h -6 q -1.65,0 -2.8,-1.05 l -0.1,-0.15 q -1.1,-1.15 -1.1,-2.8 V 430 q -2.95,-0.8 -5.4,-2.35 -5.7,-3.55 -5.6,-8.75 -0.1,-5.25 5.6,-8.8 5.15,-3.2 12.4,-3.2 7.25,0 12.35,3.2 5.75,3.55 5.65,8.8"
     style="fill:#000000;stroke:none"
     id="path9548" />
  <path
     d="m 630.2,417.4 q 0,-1.6 -0.9,-2.3 -0.9,-0.75 -3.05,-0.75 h -3.45 v 9.1 h 2.05 v -2.9 h 1.4 l 2,2.9 h 2.5 l -2.3,-3.25 q 1.75,-0.65 1.75,-2.8 m -2.45,-1 q 0.35,0.25 0.35,1 0,0.7 -0.35,1.05 -0.4,0.35 -1.4,0.35 h -1.5 v -2.7 h 1.5 q 1,0 1.4,0.3 m 17.2,2.5 q 0.15,5.2 -5.65,8.75 h 0.05 q -2.45,1.55 -5.4,2.35 v 8.85 q 0,1.7 -1.15,2.9 l -0.1,0.05 q -1.2,1.05 -2.75,1.05 h -6 q -1.65,0 -2.8,-1.05 l -0.1,-0.15 q -1.1,-1.15 -1.1,-2.8 V 430 q -2.95,-0.8 -5.4,-2.35 -5.7,-3.55 -5.6,-8.75 -0.1,-5.25 5.6,-8.8 5.15,-3.2 12.4,-3.2 7.25,0 12.35,3.2 5.75,3.55 5.65,8.8"
     style="fill:#000000;stroke:none"
     id="path9542" />
  <path
     d="m 535.45,383.35 q 3.5,-3.5 3.5,-8.5 0,-5 -3.5,-8.5 -3.5,-3.5 -8.5,-3.5 -5,0 -8.5,3.5 -3.5,3.5 -3.5,8.5 0,5 3.5,8.5 3.5,3.5 8.5,3.5 5,0 8.5,-3.5 m -6.5,-3.5 v -10 h -4 v 10 h 4 m 9.3,6.3 q -4.65,4.7 -11.3,4.7 -6.65,0 -11.35,-4.7 -4.65,-4.65 -4.65,-11.3 0,-6.65 4.65,-11.35 4.7,-4.65 11.35,-4.65 6.65,0 11.3,4.65 4.7,4.7 4.7,11.35 0,6.65 -4.7,11.3 m -4.9,-4.9 q -2.65,2.6 -6.4,2.6 -3.75,0 -6.35,-2.6 -2.65,-2.65 -2.65,-6.4 0,-3.75 2.65,-6.35 2.6,-2.65 6.35,-2.65 3.75,0 6.4,2.65 2.6,2.6 2.6,6.35 0,3.75 -2.6,6.4"
     style="fill:#000000;stroke:none"
     id="path9534" />
  <path
     d="m 493.3,369.15 q 0.6,0.5 0.65,1.35 0.05,0.75 -0.45,1.4 l -14.5,17.25 -0.95,0.65 h -1.15 q -0.6,-0.2 -0.95,-0.65 l -14.5,-17.25 q -0.55,-0.65 -0.5,-1.4 0.05,-0.75 0.6,-1.3 l 5.8,-5.75 q 0.6,-0.6 1.4,-0.6 h 16.95 q 0.8,0 1.35,0.55 l 6.25,5.75"
     style="fill:#000000;stroke:none"
     id="path9532" />
  <path
     id="path9530"
     d="m 526.95,406.9 q 7.25,0 12.35,3.2 5.75,3.55 5.65,8.8 0.15,5.2 -5.65,8.75 h 0.05 q -2.45,1.55 -5.4,2.35 v 8.85 q 0,1.7 -1.15,2.9 l -0.1,0.05 q -1.2,1.05 -2.75,1.05 h -6 q -1.65,0 -2.8,-1.05 l -0.1,-0.15 q -1.1,-1.15 -1.1,-2.8 V 430 q -2.95,-0.8 -5.4,-2.35 -5.7,-3.55 -5.6,-8.75 -0.1,-5.25 5.6,-8.8 5.15,-3.2 12.4,-3.2"
     style="fill:#000000;stroke:none" />
  <path
     id="path9526"
     d="m 530,470.65 q 1.35,1.35 2.45,3.8 2.45,5.5 2.5,13.25 v 0.1 q 0,2.05 -2.5,3.55 -2.45,1.5 -6,1.5 -3.55,0 -6.05,-1.5 -2.45,-1.5 -2.45,-3.55 v -0.1 q 0.05,-7.75 2.45,-13.25 1.15,-2.45 2.5,-3.85 l -1,-0.8 q -1.9,-1.9 -1.9,-4.55 0,-2.65 1.9,-4.5 1.85,-1.9 4.55,-1.9 2.7,0 4.6,1.9 1.9,1.85 1.9,4.5 0,2.65 -1.9,4.55 l -1.05,0.85"
     style="fill:#000000;stroke:none" />
  <path
     d="m 495.35,493.3 q -0.6,0.55 -1.4,0.55 h -34 q -0.85,0 -1.45,-0.55 -0.55,-0.6 -0.55,-1.45 v -12.7 q 0,0.55 0.55,1.15 0.6,0.55 1.45,0.55 h 34 q 0.8,0 1.4,-0.55 0.6,-0.6 0.6,-1.15 v 12.7 q 0,0.85 -0.6,1.45 m 0.6,-30.45 v 13.05 q 0,0.8 -0.6,1.4 -0.6,0.55 -1.4,0.55 h -34 q -0.85,0 -1.45,-0.55 -0.55,-0.6 -0.55,-1.4 v -13 q 0,-0.85 0.55,-1.45 0.6,-0.6 1.45,-0.6 h 34 q 0.8,0 1.4,0.6 0.6,0.6 0.6,1.4"
     style="fill:#000000;stroke:none"
     id="path9518" />
  <path
     id="path9514"
     d="m 561.8,524.85 q 0,6.3 4.45,10.75 2.1,2.1 4.65,3.25 1.9,0.8 4.05,1.05 v -3.05 h 4 v 7.2 l -2,-0.05 q -3.2,0 -6.05,-0.9 -4.2,-1.35 -7.5,-4.65 -5.6,-5.6 -5.6,-13.6 h -3 l 5,-6 5,6 h -3"
     style="fill:#000000;stroke:none" />
  <path
     id="path9512"
     d="m 636.65,464.85 6.8,11.8 q 1.25,2.2 -0.65,5.25 -1.95,3.2 -6,5.55 -4.05,2.3 -7.65,2.4 -3.7,0.2 -4.9,-1.95 l -0.95,-1.55 -7.95,-2.25 q -1.75,-0.35 -2.65,-1.9 -0.75,-1.25 -0.5,-2.7 l 0.1,-0.4 0.1,-0.15 q 0.3,-1.1 1.2,-1.95 l 0.65,-0.55 q 1.5,-0.8 3.2,-0.35 l -6,-10.5 q -0.65,-1.15 -0.45,-2.35 l 0.1,-0.6 q 0.4,-1.5 1.7,-2.2 l 0.05,-0.1 q 1.35,-0.7 2.85,-0.4 1.5,0.4 2.3,1.8 l 3.15,5.6 h 0.05 q 1.2,-1.1 2.9,-2.05 4.05,-2.3 7.75,-2.5 3.55,-0.05 4.8,2.05"
     style="fill:#000000;stroke:none" />
  <path
     d="m 582.4,481.65 q 1.4,-1.45 3.35,-1.45 2,0 3.45,1.45 v -0.05 q 1.35,1.45 1.35,3.45 l -0.05,1.15 q -0.3,1.25 -1.3,2.3 -1.45,1.35 -3.45,1.35 -1.95,0 -3.35,-1.35 -1.05,-1.1 -1.35,-2.45 V 486 l -0.1,-0.95 q 0,-1.95 1.45,-3.4 m -20.2,3.4 q 0,-2 1.45,-3.45 v 0.05 q 1.35,-1.45 3.35,-1.45 1.95,0 3.45,1.4 v 0.05 q 1.4,1.45 1.4,3.4 l -0.05,0.85 q -0.3,1.5 -1.35,2.6 -1.45,1.35 -3.45,1.35 -2,0 -3.35,-1.35 -1.2,-1.2 -1.4,-2.7 l -0.05,-0.75 m 4.8,-6.55 q -2.7,0 -4.65,1.9 -1.9,1.95 -1.9,4.65 l 0.05,0.95 -3.55,-0.1 v -12.15 l 8.5,-0.9 4.6,-11 h 11.9 l 4.4,10.4 9.6,1.5 -0.65,12.85 -3.1,-0.05 0.1,-1.5 q 0,-2.7 -1.9,-4.65 -1.9,-1.9 -4.65,-1.9 -2.7,0 -4.6,1.9 -1.95,1.95 -1.95,4.65 l 0.15,1.3 -5.85,-0.15 0.05,-1.15 q 0,-2.7 -1.9,-4.65 -1.95,-1.9 -4.65,-1.9"
     style="fill:#000000;stroke:none"
     id="path9510" />
  <path
     id="path9508"
     d="m 624.95,542 v -5.15 h 4 v 3.05 q 5.05,-0.6 8.75,-4.3 4.4,-4.45 4.4,-10.75 h -3 l 5,-6 5,6 h -3 q 0,8 -5.55,13.6 -5.6,5.55 -13.6,5.55 -0.85,0 -1.4,-0.55 -0.6,-0.6 -0.6,-1.45"
     style="fill:#000000;stroke:none" />
  <path
     d="m 421.4,380.1 q -1.55,-1.4 -3.25,-1.8 -1.1,-0.2 -1.85,0.4 -0.55,0.7 -0.35,1.75 0.35,1.85 1.85,3.45 l 0.4,0.4 q 1.35,1.2 3,1.5 l 0.15,0.05 q 1,0.1 1.6,-0.45 0.5,-0.65 0.4,-1.6 v -0.2 q -0.35,-1.6 -1.45,-3 l -0.35,-0.4 -0.15,-0.1 m 18.05,-15.3 q 0.05,0.95 -0.35,1.65 l 4.25,4.3 q 1.25,1.25 0,2.5 l -0.95,0.95 -0.45,0.25 -0.4,-0.2 -0.65,-0.65 -2.25,2.35 0.65,0.6 0.15,0.4 -0.2,0.45 -0.9,0.95 q -1.3,1.3 -2.55,0 l -4.25,-4.3 -4.05,4.2 q 1.25,2.05 1.7,4.4 l -0.1,0.05 q 0.8,4.3 -1.95,6.85 -2.6,2.85 -6.9,2.15 -3.4,-0.6 -6.2,-3.2 l -0.4,-0.4 q -2.95,-2.9 -3.55,-6.55 v -0.05 q -0.25,-1.4 -0.05,-2.55 0.15,-2.7 2.05,-4.5 1.85,-1.9 4.45,-2.15 l 2.45,0.1 h 0.15 q 2.2,0.4 4.15,1.65 l 11.4,-11.55 q 0.65,-0.75 1.9,-0.6 1.1,0.15 1.9,1 l 0.45,0.4 q 0.5,0.65 0.5,1.5"
     style="fill:#000000;stroke:none"
     id="path9504" />
  <path
     d="m 474.1,421.5 h 2.2 q 1.45,0 2,0.4 0.6,0.4 0.6,1.5 0,1.05 -0.55,1.55 -0.55,0.5 -2.1,0.5 h -2.15 v -3.95 m 2.05,-2.55 h -5 v 13.3 h 2.95 V 428 h 2.05 l 2.95,4.25 h 3.65 l -3.35,-4.75 q 2.5,-0.95 2.5,-4.1 0,-2.35 -1.3,-3.4 -1.35,-1.05 -4.45,-1.05 m 12.1,17.2 q -4.65,4.7 -11.3,4.7 -6.65,0 -11.35,-4.7 -4.65,-4.65 -4.65,-11.3 0,-6.65 4.65,-11.35 4.7,-4.65 11.35,-4.65 6.65,0 11.3,4.65 4.7,4.7 4.7,11.35 0,6.65 -4.7,11.3"
     style="fill:#000000;stroke:none"
     id="path9498" />
  <path
     d="m 425.6,418.95 h -2.95 v 13.3 h 8.6 v -2.65 h -5.65 v -10.65 m 12.65,-5.45 q 4.7,4.7 4.7,11.35 0,6.65 -4.7,11.3 -4.65,4.7 -11.3,4.7 -6.65,0 -11.35,-4.7 -4.65,-4.65 -4.65,-11.3 0,-6.65 4.65,-11.35 4.7,-4.65 11.35,-4.65 6.65,0 11.3,4.65"
     style="fill:#000000;stroke:none"
     id="path9496" />
  <path
     d="m 369.95,371.85 h 12 v -12 h -12 v 12 m 16,2 q 0,0.85 -0.6,1.45 -0.6,0.55 -1.4,0.55 h -2.4 l -0.25,0.25 q 2.5,1.05 4.55,3 4.1,3.95 4.1,9.6 0,3 -4.1,5.05 -4.05,2.1 -9.9,2.1 -5.8,0 -9.9,-2.1 -4.05,-2.05 -4.1,-5.05 0,-5.65 4.1,-9.6 2.05,-1.95 4.55,-3 l -0.25,-0.25 h -2.4 q -0.85,0 -1.45,-0.55 -0.55,-0.6 -0.55,-1.45 V 357.9 q 0,-0.85 0.55,-1.45 0.6,-0.6 1.45,-0.6 h 16 q 0.8,0 1.4,0.6 0.6,0.6 0.6,1.4 v 16"
     style="fill:#000000;stroke:none"
     id="path9492" />
  <path
     d="m 364.95,409.85 v 16 h 22 v -16 h -22 m 17,28 v 4 h 4 v -4 h -4 m -19,-4 h 26 q 0.8,0 1.4,0.6 0.6,0.6 0.6,1.4 v 8 q 0,0.85 -0.6,1.45 -0.6,0.55 -1.4,0.55 h -26 q -0.85,0 -1.45,-0.55 -0.55,-0.6 -0.55,-1.45 v -7.95 q 0,-0.85 0.55,-1.45 0.6,-0.6 1.45,-0.6 m 0,-28 h 26 q 0.8,0 1.4,0.6 0.6,0.6 0.6,1.4 v 22 l -0.2,0.95 -0.4,0.5 q -0.6,0.55 -1.4,0.55 h -26 q -0.85,0 -1.45,-0.55 l -0.35,-0.5 -0.2,-0.95 V 407.9 q 0,-0.85 0.55,-1.45 0.6,-0.6 1.45,-0.6"
     style="fill:#000000;stroke:none"
     id="path9472" />
  <path
     d="m 342.95,434.55 -3.1,-11.6 -30.9,8.35 3.1,11.55 30.9,-8.3 m -2.2,-16 q 0.8,-0.2 1.5,0.25 0.75,0.4 0.95,1.2 l 4.15,15.45 q 0.2,0.8 -0.25,1.55 -0.4,0.7 -1.2,0.9 l -34.75,9.35 -1.55,-0.2 q -0.7,-0.45 -0.9,-1.25 l -4.15,-15.4 q -0.2,-0.85 0.2,-1.55 0.45,-0.75 1.25,-0.95 l 34.75,-9.35 m -1.8,-8.9 q 0.1,0.5 -0.35,1.15 l -3.1,5.15 -0.9,0.7 q -0.6,0.15 -1.2,-0.3 -1.9,-1.3 -4.15,-1.75 h -0.05 l -5.1,0.3 1.1,1.55 q 0.6,0.8 0.1,1.7 l -0.05,0.1 q -0.55,0.6 -1.3,0.6 h -0.1 l -10.6,-1.35 h -0.1 q -0.75,-0.15 -1.05,-0.8 l 0.1,0.1 q -0.45,-0.55 -0.2,-1.2 v -0.1 l 3.8,-10.6 q 0.1,-0.9 1.3,-1.05 h 0.1 q 0.85,0 1.3,0.75 l 0.05,0.15 0.95,2.15 q 5.35,-2.4 11.35,-1.25 4,0.7 7.3,3.05 0.75,0.35 0.8,0.95"
     style="fill:#000000;stroke:none"
     id="path9470" />
  <path
     d="m 395.3,460.85 2.5,17 h -41.6 l 2.5,-17 h 36.6 m 4.65,30.65 q 0.15,0.95 -0.45,1.65 -0.6,0.6 -1.55,0.7 h -42 q -1,-0.1 -1.6,-0.7 -0.55,-0.7 -0.4,-1.65 l 2,-12.4 q -0.05,0.45 0.4,0.95 0.5,0.45 1.6,0.8 h 38 l 1.6,-0.8 0.1,-0.15 q 0.35,-0.5 0.3,-1.05 l 2,12.65"
     style="fill:#000000;stroke:none"
     id="path9466" />
  <path
     d="m 338.3,460.85 2.5,17 h -29.6 l 2.5,-17 h 24.6 m 2.25,19.2 0.1,-0.15 q 0.35,-0.5 0.3,-1.05 l 2,12.65 q 0.15,0.95 -0.45,1.65 -0.6,0.6 -1.55,0.7 h -30 q -1,-0.1 -1.6,-0.7 -0.55,-0.7 -0.4,-1.65 l 2,-12.4 q -0.05,0.45 0.4,0.95 0.5,0.45 1.6,0.8 h 26 l 1.6,-0.8"
     style="fill:#000000;stroke:none"
     id="path9462" />
  <path
     d="M 410.95,491.85 V 479 q 0,0.7 0.55,1.3 0.6,0.55 1.45,0.55 h 26 q 0.8,0 1.4,-0.55 0.6,-0.6 0.6,-1.3 v 12.85 q 0,0.85 -0.6,1.45 -0.6,0.55 -1.4,0.55 h -26 q -0.85,0 -1.45,-0.55 -0.55,-0.6 -0.55,-1.45 m 29.4,-30.4 q 0.6,0.6 0.6,1.4 v 13.05 q 0,0.8 -0.6,1.4 -0.6,0.55 -1.4,0.55 h -26 q -0.85,0 -1.45,-0.55 -0.55,-0.6 -0.55,-1.4 v -13 q 0,-0.85 0.55,-1.45 0.6,-0.6 1.45,-0.6 h 26 q 0.8,0 1.4,0.6"
     style="fill:#000000;stroke:none"
     id="path9454" />
  <path
     id="path9426"
     d="m 590.3,611.05 0.25,0.25 q 5.55,5.55 5.55,13.55 0,8 -5.55,13.6 -5.6,5.55 -13.6,5.55 l -2,0.05 v -7.35 h 4 v 3.2 q 5.05,-0.6 8.75,-4.3 4.4,-4.45 4.4,-10.75 0,-6.3 -4.4,-10.7 l -0.25,-0.25 h 0.05 q -4.4,-4.2 -10.55,-4.2 v 3 l -6,-5 6,-5 v 3 q 7.75,0 13.3,5.3 v 0.05 h 0.05"
     style="fill:#000000;stroke:none" />
  <path
     id="path9424"
     d="m 574.95,563.1 v -3.15 q -2.15,0.25 -4.05,1.05 -2.55,1.1 -4.65,3.25 -4.45,4.4 -4.45,10.7 h 3 l -5,6 -5,-6 h 3 q 0,-8 5.6,-13.55 3.3,-3.35 7.5,-4.7 2.85,-0.9 6.05,-0.9 l 2,-0.05 v 7.35 h -4"
     style="fill:#000000;stroke:none" />
  <path
     id="path9422"
     d="m 637.7,564.25 q -3.7,-3.75 -8.75,-4.3 v 3.15 h -4 v -5.3 q 0,-0.85 0.6,-1.4 0.55,-0.6 1.4,-0.6 8,0 13.6,5.6 5.55,5.55 5.55,13.55 h 3 l -5,6 -5,-6 h 3 q 0,-6.3 -4.4,-10.7"
     style="fill:#000000;stroke:none" />
  <path
     id="path9420"
     d="m 626.95,605.7 v -3 l 6,5 -6,5 v -3 q -6.3,0 -10.7,4.45 -4.45,4.4 -4.45,10.7 0,6.3 4.45,10.75 3.65,3.7 8.7,4.3 v -3.2 h 4 v 7.35 l -2,-0.05 q -8,0 -13.55,-5.55 -5.6,-5.6 -5.6,-13.6 0,-8 5.6,-13.55 5.55,-5.6 13.55,-5.6"
     style="fill:#000000;stroke:none" />
  <path
     id="path9418"
     d="m 565.1,676.85 h -7.35 l 0.05,-2 q 0,-8 5.6,-13.55 3.3,-3.35 7.5,-4.7 2.85,-0.9 6.05,-0.9 8,0 13.6,5.6 5.55,5.55 5.55,13.55 h 3 l -5,6 -5,-6 h 3 q 0,-6.3 -4.4,-10.7 -4.45,-4.45 -10.75,-4.45 -3.3,0 -6.05,1.2 -2.55,1.1 -4.65,3.25 -3.75,3.65 -4.3,8.7 h 3.15 v 4"
     style="fill:#000000;stroke:none" />
  <path
     id="path9416"
     d="m 626.95,690 q 6.3,0 10.75,-4.4 3.35,-3.35 4.15,-7.8 l 0.15,-0.95 h -3.2 v -4 h 7.35 l -0.05,2 -0.2,2.95 q -0.85,6.1 -5.35,10.65 -5.6,5.55 -13.6,5.55 -8,0 -13.55,-5.55 -4.55,-4.55 -5.4,-10.65 l -0.2,-2.95 h -3 l 5,-6 5,6 h -3 q 0,1.55 0.25,2.95 0.85,4.45 4.2,7.8 4.4,4.4 10.7,4.4"
     style="fill:#000000;stroke:none" />
  <path
     d="m 283.25,404.75 0.05,-0.15 q 0.45,-0.75 1.3,-0.75 h 0.1 q 1.2,0.15 1.3,1.05 l 3.8,10.6 v 0.1 q 0.25,0.65 -0.2,1.2 l 0.1,-0.1 -1.05,0.8 h -0.1 l -10.6,1.35 h -0.1 q -0.75,0 -1.3,-0.6 l -0.05,-0.1 q -0.5,-0.9 0.1,-1.7 l 1.1,-1.55 -5.1,-0.3 h -0.05 q -2.25,0.45 -4.15,1.75 -0.6,0.45 -1.2,0.3 -0.6,-0.2 -0.9,-0.7 l -3.1,-5.15 q -0.45,-0.65 -0.35,-1.15 0.05,-0.6 0.8,-0.95 3.3,-2.35 7.3,-3.05 6,-1.15 11.35,1.25 l 0.95,-2.15 M 259.6,418.8 q 0.8,-0.45 1.6,-0.25 l 34.75,9.3 q 0.75,0.25 1.2,0.95 0.4,0.7 0.2,1.5 l -4.15,15.5 q -0.25,0.8 -0.95,1.2 l -1.5,0.15 -34.8,-9.25 q -0.8,-0.2 -1.25,-0.95 -0.35,-0.75 -0.15,-1.55 L 258.7,420 q 0.2,-0.8 0.9,-1.2 m 2.45,4.15 -3.1,11.6 30.95,8.25 3.05,-11.6 -30.9,-8.25"
     style="fill:#000000;stroke:none"
     id="path9402" />
  <path
     d="m 243.95,366.85 q 0.8,0 1.4,0.6 0.6,0.6 0.6,1.4 v 16 q 0,0.85 -0.6,1.45 -0.6,0.55 -1.4,0.55 h -36 q -0.85,0 -1.45,-0.55 -0.55,-0.6 -0.55,-1.45 V 368.9 q 0,-0.85 0.55,-1.45 0.6,-0.6 1.45,-0.6 h 36 m -27,4 h -4 v 3.95 h -4 v 4 h 4 v 4 h 4 v -4 h 3.95 v -4 h -3.95 v -3.95 m 25.4,7.4 q 0.6,-0.55 0.6,-1.4 0,-0.8 -0.6,-1.4 -0.6,-0.6 -1.4,-0.6 -0.85,0 -1.45,0.6 -0.55,0.6 -0.55,1.4 0,0.85 0.55,1.4 0.6,0.6 1.45,0.6 0.8,0 1.4,-0.6 m -7,0 q 0.6,-0.55 0.6,-1.4 0,-0.8 -0.6,-1.4 -0.6,-0.6 -1.4,-0.6 -0.85,0 -1.45,0.6 -0.55,0.6 -0.55,1.4 0,0.85 0.55,1.4 0.6,0.6 1.45,0.6 0.8,0 1.4,-0.6"
     style="fill:#000000;stroke:none"
     id="path9398" />
  <path
     d="m 320.55,382.25 -3.8,1 -1.05,-3.85 -3.85,1.05 1.05,3.85 -3.9,1 1,3.85 3.9,-1 1.05,3.85 3.85,-1.05 -1.05,-3.85 3.8,-1 -1,-3.85 m 21.7,-13.45 q 0.75,0.4 0.95,1.2 l 4.15,15.45 q 0.2,0.8 -0.25,1.55 -0.4,0.7 -1.2,0.9 l -34.75,9.35 -1.55,-0.2 q -0.7,-0.45 -0.9,-1.25 l -4.15,-15.4 q -0.2,-0.85 0.2,-1.55 0.45,-0.75 1.25,-0.95 l 34.75,-9.35 q 0.8,-0.2 1.5,0.25 m 0.1,9.65 q -0.2,-0.75 -0.95,-1.2 l -1.5,-0.15 q -0.8,0.2 -1.25,0.9 -0.35,0.75 -0.15,1.5 0.25,0.85 0.9,1.2 l 1.55,0.25 q 0.8,-0.2 1.2,-1 0.45,-0.65 0.2,-1.5 m -6.95,3.35 q 0.45,-0.65 0.2,-1.5 -0.2,-0.75 -0.95,-1.2 l -1.5,-0.2 q -0.8,0.2 -1.25,0.9 -0.35,0.75 -0.15,1.5 0.25,0.85 0.9,1.2 l 1.55,0.25 q 0.8,-0.2 1.2,-0.95 m 3.55,-22.15 q 0.1,0.5 -0.35,1.15 l -3.1,5.15 -0.9,0.7 q -0.6,0.15 -1.2,-0.3 -1.9,-1.3 -4.15,-1.75 h -0.05 l -5.1,0.3 1.1,1.55 q 0.6,0.8 0.1,1.7 l -0.05,0.1 q -0.55,0.6 -1.3,0.6 h -0.1 l -10.6,-1.35 h -0.1 q -0.75,-0.15 -1.05,-0.8 l 0.1,0.1 q -0.45,-0.55 -0.2,-1.2 v -0.1 l 3.8,-10.6 q 0.1,-0.9 1.3,-1.05 h 0.1 q 0.85,0 1.3,0.75 l 0.05,0.15 0.95,2.15 q 5.35,-2.4 11.35,-1.25 4,0.7 7.3,3.05 0.75,0.35 0.8,0.95"
     style="fill:#000000;stroke:none"
     id="path9396" />
  <path
     d="m 284.6,353.85 h 0.1 q 1.2,0.15 1.3,1.05 l 3.8,10.6 v 0.1 q 0.25,0.65 -0.2,1.2 l 0.1,-0.1 -1.05,0.8 h -0.1 l -10.6,1.35 h -0.1 q -0.75,0 -1.3,-0.6 l -0.05,-0.1 q -0.5,-0.9 0.1,-1.7 l 1.1,-1.55 -5.1,-0.3 h -0.05 q -2.25,0.45 -4.15,1.75 -0.6,0.45 -1.2,0.3 -0.6,-0.2 -0.9,-0.7 l -3.1,-5.15 q -0.45,-0.65 -0.35,-1.15 0.05,-0.6 0.8,-0.95 3.3,-2.35 7.3,-3.05 6,-1.15 11.35,1.25 l 0.95,-2.15 0.05,-0.15 q 0.45,-0.75 1.3,-0.75 m 12.55,24.95 q 0.4,0.7 0.2,1.5 l -4.15,15.5 q -0.25,0.8 -0.95,1.2 l -1.5,0.15 -34.8,-9.25 q -0.8,-0.2 -1.25,-0.95 -0.35,-0.75 -0.15,-1.55 L 258.7,370 q 0.2,-0.8 0.9,-1.2 0.8,-0.45 1.6,-0.25 l 34.75,9.3 q 0.75,0.25 1.2,0.95 m -12.45,7.85 q 0.7,-0.35 0.9,-1.2 0.2,-0.75 -0.2,-1.5 -0.4,-0.7 -1.2,-0.95 l -1.55,0.15 q -0.7,0.5 -0.85,1.25 -0.25,0.85 0.15,1.5 0.4,0.75 1.2,0.95 l 1.55,-0.2 m 7.45,-0.95 q -0.4,-0.65 -1.2,-0.9 l -1.55,0.2 q -0.7,0.45 -0.85,1.2 -0.25,0.85 0.15,1.5 0.4,0.75 1.2,1 l 1.55,-0.25 q 0.75,-0.4 0.9,-1.2 0.25,-0.75 -0.2,-1.55 m -28.2,-8.15 -3.85,-1.1 -1.1,3.85 3.85,1.1 -0.95,3.85 3.8,1 1.05,-3.85 3.8,1.05 1.05,-3.85 -3.8,-1 1.05,-3.9 -3.9,-1 -1,3.85"
     style="fill:#000000;stroke:none"
     id="path9388" />
  <path
     d="m 178.05,365.75 q -0.85,-0.95 -2.1,-0.95 -1.25,0 -2.15,0.95 -0.55,0.6 -0.7,1.35 l -0.15,0.9 v 7.45 q 0,1.35 0.85,2.3 0.9,1 2.15,1 1.25,0 2.1,-1 0.9,-0.95 0.9,-2.3 V 368 l -0.1,-0.9 q -0.25,-0.75 -0.8,-1.35 m -8.1,5.95 V 368 q 0.05,-2.45 1.65,-4.2 1.7,-1.9 4.1,-1.95 H 165 v 9.85 h 4.95 M 190,360.85 v 18.85 h -0.05 q 0,5.8 -4.1,9.85 -4.05,4.1 -9.85,4.1 h -0.05 q -5.8,0 -9.9,-4.1 Q 162,385.5 162,379.7 v -18.8 q 0,-0.85 0.55,-1.45 0.6,-0.6 1.45,-0.6 h 24 q 0.8,0 1.4,0.6 0.6,0.6 0.6,1.4 m -3,1 h -10.8 q 2.45,0.05 4.15,2 l -0.1,-0.15 q 1.7,1.8 1.7,4.3 v 3.7 H 187 v -9.85"
     style="fill:#000000;stroke:none"
     id="path9380" />
  <path
     d="m 162.95,443.9 q -1.7,0 -2.85,-2.8 -1.15,-2.75 -1.15,-6.7 0,-3.95 1.15,-6.75 1.15,-2.75 2.85,-2.75 1.65,0 2.8,2.75 1.2,2.8 1.2,6.75 0,3.95 -1.2,6.7 -1.15,2.8 -2.8,2.8 m 14.15,-36.55 q 0.6,-0.6 1.45,-0.6 0.85,0 1.45,0.55 l 15.55,15.55 q 0.6,0.6 0.55,1.45 0,0.8 -0.6,1.4 l -12.7,12.7 q -0.6,0.6 -1.45,0.65 Q 180.6,439 180,438.4 l -15.55,-15.5 q -0.6,-0.6 -0.65,-1.4 0,-0.85 0.6,-1.45 l 12.7,-12.7"
     style="fill:#000000;stroke:none"
     id="path9376" />
  <path
     d="m 241.95,467.85 q 0.85,0 1.45,0.55 0.55,0.6 0.55,1.45 v 12 q 0,0.8 -0.55,1.4 -0.6,0.6 -1.45,0.6 h -8 v 8 q 0,0.8 -0.6,1.4 -0.6,0.6 -1.4,0.6 h -12 q -0.85,0 -1.45,-0.6 -0.55,-0.6 -0.55,-1.45 v -7.95 h -8 q -0.8,0 -1.4,-0.6 -0.6,-0.6 -0.6,-1.4 v -12 q 0,-0.85 0.6,-1.45 0.6,-0.55 1.45,-0.55 h 7.95 v -8 q 0,-0.85 0.55,-1.45 0.6,-0.55 1.45,-0.55 h 12 q 0.8,0 1.4,0.55 0.6,0.6 0.6,1.45 v 8 h 8 m -26.15,4.15 -0.35,-0.15 h -0.5 l -4,4 4,4 h 0.5 l 0.35,-0.15 0.15,-0.35 v -7 L 215.8,472"
     style="fill:#000000;stroke:none"
     id="path9372" />
  <path
     d="m 209.95,432.85 h 32 v -12 h -32 v 12 m 35.4,-15.4 q 0.6,0.6 0.6,1.4 v 16 q 0,0.85 -0.6,1.45 -0.6,0.55 -1.4,0.55 h -36 q -0.85,0 -1.45,-0.55 -0.55,-0.6 -0.55,-1.45 V 418.9 q 0,-0.85 0.55,-1.45 0.6,-0.6 1.45,-0.6 h 36 q 0.8,0 1.4,0.6"
     style="fill:#000000;stroke:none"
     id="path9370" />
  <path
     d="m 171.95,486.85 4,4 4,-4 v -0.5 l -0.15,-0.35 -0.35,-0.15 h -7 q -0.2,0 -0.35,0.15 -0.15,0.15 -0.15,0.35 v 0.5 m 20,-19 q 0.85,0 1.45,0.6 0.55,0.6 0.55,1.4 v 12 q 0,0.85 -0.55,1.45 -0.6,0.55 -1.45,0.55 h -8 v 7.95 q 0,0.85 -0.55,1.45 -0.6,0.6 -1.45,0.6 h -12 q -0.8,0 -1.4,-0.6 -0.6,-0.6 -0.6,-1.4 v -8 H 160 q -0.85,0 -1.45,-0.55 -0.6,-0.6 -0.6,-1.45 v -12 q 0,-0.8 0.6,-1.4 0.6,-0.6 1.4,-0.6 h 8 v -8 q 0,-0.85 0.6,-1.45 0.6,-0.55 1.4,-0.55 h 12 q 0.85,0 1.45,0.55 0.55,0.6 0.55,1.45 v 8 h 8"
     style="fill:#000000;stroke:none"
     id="path9366" />
  <path
     id="path9364"
     d="m 174.4,505.85 2.55,-0.15 v -3 l 6,5 -6,5 v -3 q -6.3,0 -10.7,4.45 -3.75,3.65 -4.3,8.7 h 3 v 1.75 q 0.1,-4.85 3.5,-8.25 3.5,-3.5 8.5,-3.5 5,0 8.5,3.5 3.5,3.5 3.5,8.5 0,5 -3.5,8.5 -3.5,3.5 -8.5,3.5 -5,0 -8.5,-3.5 -3.4,-3.4 -3.5,-8.25 v 1.75 h -7.2 l 0.05,-2 q 0,-8 5.6,-13.55 4.65,-4.7 11,-5.45"
     style="fill:#000000;stroke:none" />
  <path
     id="path9362"
     d="m 235.45,516.35 q 3.5,3.5 3.5,8.5 0,5 -3.5,8.5 -3.5,3.5 -8.5,3.5 -5,0 -8.5,-3.5 -3.4,-3.4 -3.5,-8.25 v 1.75 h -3 q 0.55,5.05 4.3,8.75 4.4,4.4 10.7,4.4 v -3 l 6,5 -6,5 v -3 q -8,0 -13.55,-5.55 -5.6,-5.6 -5.6,-13.6 0,-0.85 0.6,-1.4 0.55,-0.6 1.4,-0.6 h 5.15 v 1.75 q 0.1,-4.85 3.5,-8.25 3.5,-3.5 8.5,-3.5 5,0 8.5,3.5"
     style="fill:#000000;stroke:none" />
  <path
     d="m 271.95,486.35 v 0.5 l 4,4 4,-4 v -0.5 l -0.15,-0.35 -0.35,-0.15 h -7 q -0.2,0 -0.35,0.15 -0.15,0.15 -0.15,0.35 m -6,-14 -0.15,-0.35 q -0.15,-0.15 -0.35,-0.15 h -0.5 l -4,4 4,4 h 0.5 l 0.35,-0.15 0.15,-0.35 v -7 m 6.15,-6.65 0.35,0.15 h 7 l 0.35,-0.15 0.15,-0.35 v -0.5 l -4,-4 -4,4 v 0.5 l 0.15,0.35 m 21.25,2.7 q 0.6,0.6 0.6,1.45 v 12 q 0,0.8 -0.6,1.4 -0.6,0.6 -1.4,0.6 h -8 v 8 q 0,0.85 -0.6,1.45 -0.6,0.55 -1.4,0.55 h -12 q -0.85,0 -1.45,-0.55 -0.55,-0.6 -0.55,-1.45 v -8 h -8 q -0.85,0 -1.45,-0.6 -0.55,-0.6 -0.55,-1.4 v -12 q 0,-0.85 0.55,-1.45 0.6,-0.55 1.45,-0.55 h 8 v -7.95 q 0,-0.85 0.55,-1.45 0.6,-0.6 1.45,-0.6 h 12 q 0.8,0 1.4,0.6 0.6,0.6 0.6,1.4 v 8 h 7.95 q 0.85,0 1.45,0.55 m -7.4,3.95 v 7 l 0.15,0.35 0.35,0.15 h 0.5 l 4,-4 -4,-4 h -0.5 q -0.2,0 -0.35,0.15 l -0.15,0.35"
     style="fill:#000000;stroke:none"
     id="path9352" />
  <path
     d="m 115,371.7 h 4.95 V 368 q 0.05,-2.45 1.65,-4.2 1.7,-1.9 4.1,-1.95 H 115 v 9.85 m 24.4,-12.25 q 0.6,0.6 0.6,1.4 v 18.85 h -0.05 q 0,5.8 -4.1,9.85 -4.05,4.1 -9.85,4.1 h -0.05 q -5.8,0 -9.9,-4.1 Q 112,385.5 112,379.7 v -18.8 q 0,-0.85 0.55,-1.45 0.6,-0.6 1.45,-0.6 h 24 q 0.8,0 1.4,0.6 m -16.3,7.65 -0.15,0.9 v 7.45 q 0,1.35 0.85,2.3 0.9,1 2.15,1 1.25,0 2.1,-1 0.9,-0.95 0.9,-2.3 V 368 l -0.1,-0.9 -0.8,-1.35 q -0.85,-0.95 -2.1,-0.95 -1.25,0 -2.15,0.95 -0.55,0.6 -0.7,1.35"
     style="fill:#000000;stroke:none"
     id="path9346" />
  <path
     id="path9338"
     d="m 109.9,431.7 q -0.6,-0.6 -0.65,-1.45 0,-0.8 0.6,-1.4 L 129.9,408.8 q 0.55,-0.55 1.4,-0.6 0.85,0.05 1.4,0.6 l 11.3,11.35 q 0.6,0.6 0.65,1.4 -0.05,0.85 -0.6,1.4 L 124,443 q -0.6,0.6 -1.4,0.6 -0.85,0 -1.45,-0.6 L 109.9,431.7"
     style="fill:#000000;stroke:none" />
  <path
     d="m 72.95,368 q 0,-1.35 0.85,-2.3 0.9,-0.95 2.15,-0.95 1.25,0 2.1,0.95 0.9,0.95 0.9,2.3 v 7.45 q 0,1.35 -0.9,2.3 -0.85,1 -2.1,1 -1.25,0 -2.15,-1 -0.85,-0.95 -0.85,-2.3 V 368 M 90,360.85 v 18.85 h -0.05 q 0,5.8 -4.1,9.85 -4.05,4.1 -9.85,4.1 h -0.05 q -5.8,0 -9.9,-4.1 Q 62,385.5 62,379.7 v -18.8 q 0,-0.85 0.55,-1.45 0.6,-0.6 1.45,-0.6 h 24 q 0.8,0 1.4,0.6 0.6,0.6 0.6,1.4 m -3,10.85 v -9.85 H 65 v 9.85 h 4.95 v 3.75 q 0.05,2.5 1.65,4.3 1.8,2.05 4.35,2 2.6,0.05 4.4,-2.05 l -0.1,0.15 q 1.7,-1.85 1.7,-4.4 V 371.7 H 87"
     style="fill:#000000;stroke:none"
     id="path9336" />
  <path
     d="m 23.8,365.75 q -0.55,0.6 -0.7,1.35 l -0.15,0.9 v 7.45 q 0,1.35 0.85,2.3 0.9,1 2.15,1 1.25,0 2.1,-1 0.9,-0.95 0.9,-2.3 V 368 l -0.1,-0.9 -0.8,-1.35 q -0.85,-0.95 -2.1,-0.95 -1.25,0 -2.15,0.95 m 6.45,-2.05 q 1.7,1.8 1.7,4.3 v 3.7 H 37 v -9.85 H 26.2 q 2.45,0.05 4.15,2 l -0.1,-0.15 m 9.15,-4.25 q 0.6,0.6 0.6,1.4 v 18.85 h -0.05 q 0,5.8 -4.1,9.85 -4.05,4.1 -9.85,4.1 h -0.05 q -5.8,0 -9.9,-4.1 Q 12,385.5 12,379.7 v -18.8 q 0,-0.85 0.55,-1.45 0.6,-0.6 1.45,-0.6 h 24 q 0.8,0 1.4,0.6"
     style="fill:#000000;stroke:none"
     id="path9330" />
  <path
     id="path9328"
     d="m 20.6,440.95 -9.75,1.9 -1.9,-1.9 1.9,-9.75 23.35,-23.35 9.75,9.7 -23.35,23.4"
     style="fill:#000000;stroke:none" />
  <path
     d="m 79.8,465.7 0.15,-0.35 v -0.5 l -4,-4 -4,4 v 0.5 l 0.15,0.35 0.35,0.15 h 7 l 0.35,-0.15 m -11.3,-7.25 q 0.6,-0.6 1.45,-0.6 h 12 q 0.8,0 1.4,0.6 0.6,0.6 0.6,1.4 v 8 h 7.95 q 0.85,0 1.45,0.55 0.6,0.6 0.6,1.45 v 12 q 0,0.8 -0.6,1.4 -0.6,0.6 -1.4,0.6 h -8 v 8 q 0,0.85 -0.6,1.45 -0.6,0.55 -1.4,0.55 h -12 q -0.85,0 -1.45,-0.55 -0.55,-0.6 -0.55,-1.45 v -8 h -8 q -0.85,0 -1.45,-0.6 -0.55,-0.6 -0.55,-1.4 v -12 q 0,-0.85 0.55,-1.45 0.6,-0.55 1.45,-0.55 h 8 v -7.95 q 0,-0.85 0.55,-1.45"
     style="fill:#000000;stroke:none"
     id="path9324" />
  <path
     id="path9322"
     d="m 43.95,469.85 v 12 q 0,0.8 -0.6,1.4 -0.6,0.6 -1.4,0.6 h -8 v 8 q 0,0.85 -0.6,1.45 -0.6,0.55 -1.4,0.55 h -12 q -0.85,0 -1.45,-0.55 -0.55,-0.6 -0.55,-1.45 v -8 h -8 q -0.85,0 -1.45,-0.6 -0.55,-0.6 -0.55,-1.4 v -12 q 0,-0.85 0.55,-1.45 0.6,-0.55 1.45,-0.55 h 8 v -7.95 q 0,-0.85 0.55,-1.45 0.6,-0.6 1.45,-0.6 h 12 q 0.8,0 1.4,0.6 0.6,0.6 0.6,1.4 v 8 h 7.95 q 0.85,0 1.45,0.55 0.6,0.6 0.6,1.45"
     style="fill:#000000;stroke:none" />
  <path
     id="path9320"
     d="m 36.95,518.15 q 2,2.9 2,6.7 0,3.8 -2,6.7 l -1.5,1.8 q -3.5,3.5 -8.5,3.5 -5,0 -8.5,-3.5 -3.5,-3.5 -3.5,-8.5 0,-5 3.5,-8.5 3.5,-3.5 8.5,-3.5 5,0 8.5,3.5 l 1.5,1.8"
     style="fill:#000000;stroke:none" />
  <path
     id="path9318"
     d="m 76.95,512.85 q 5,0 8.5,3.5 3.5,3.5 3.5,8.5 0,5 -3.5,8.5 -3.4,3.4 -8.25,3.5 h 1.75 v 7.2 l -2,-0.05 q -8,0 -13.55,-5.55 -5.6,-5.6 -5.6,-13.6 h -3 l 5,-6 5,6 h -3 q 0,6.3 4.45,10.75 3.65,3.7 8.7,4.3 v -3.05 h 1.75 q -4.85,-0.1 -8.25,-3.5 -3.5,-3.5 -3.5,-8.5 0,-5 3.5,-8.5 3.5,-3.5 8.5,-3.5"
     style="fill:#000000;stroke:none" />
  <path
     d="m 135.95,472.35 v 7 l 0.15,0.35 0.35,0.15 h 0.5 l 4,-4 -4,-4 h -0.5 l -0.35,0.15 -0.15,0.35 m 8,-2.5 v 12 q 0,0.8 -0.6,1.4 -0.6,0.6 -1.4,0.6 h -8 v 7.95 q 0,0.85 -0.55,1.45 -0.6,0.6 -1.45,0.6 h -12 q -0.8,0 -1.4,-0.6 -0.6,-0.6 -0.6,-1.4 v -8 h -8 q -0.85,0 -1.45,-0.6 -0.55,-0.6 -0.55,-1.4 v -12 q 0,-0.85 0.55,-1.45 0.6,-0.55 1.45,-0.55 h 8 v -8 q 0,-0.85 0.6,-1.45 0.6,-0.55 1.4,-0.55 h 12 q 0.85,0 1.45,0.55 0.55,0.6 0.55,1.45 v 8 h 7.95 q 0.85,0 1.45,0.55 0.6,0.6 0.6,1.45"
     style="fill:#000000;stroke:none"
     id="path9314" />
  <path
     id="path9312"
     d="m 114.95,524.85 q 0,-5 3.5,-8.5 3.5,-3.5 8.5,-3.5 5,0 8.5,3.5 3.5,3.5 3.5,8.5 0,5 -3.5,8.5 -3.4,3.4 -8.25,3.5 h 1.75 v 3.05 q 5.05,-0.6 8.75,-4.3 4.4,-4.45 4.4,-10.75 h -3 l 5,-6 5,6 h -3 q 0,8 -5.55,13.6 -5.6,5.55 -13.6,5.55 -0.85,0 -1.4,-0.55 -0.6,-0.6 -0.6,-1.45 v -5.15 h 1.75 q -4.85,-0.1 -8.25,-3.5 -3.5,-3.5 -3.5,-8.5"
     style="fill:#000000;stroke:none" />
  <path
     id="path9310"
     d="m 90.25,611 v 0.05 h 0.05 l 0.25,0.25 q 5.55,5.55 5.55,13.55 0,8 -5.55,13.6 -5.6,5.55 -13.6,5.55 l -2,0.05 v -7.35 q -3.7,-0.55 -6.5,-3.35 -3.5,-3.5 -3.5,-8.5 0,-5 3.5,-8.5 3.5,-3.5 8.5,-3.5 5,0 8.5,3.5 3.5,3.5 3.5,8.5 0,5 -3.5,8.5 -2.8,2.8 -6.5,3.35 v 3.2 q 5.05,-0.6 8.75,-4.3 4.4,-4.45 4.4,-10.75 0,-6.3 -4.4,-10.7 l -0.25,-0.25 h 0.05 q -4.4,-4.2 -10.55,-4.2 v 3 l -6,-5 6,-5 v 3 q 7.75,0 13.3,5.3"
     style="fill:#000000;stroke:none" />
  <path
     id="path9308"
     d="m 88.95,574.95 q 0,5 -3.5,8.5 -3.5,3.5 -8.5,3.5 -5,0 -8.5,-3.5 -3.5,-3.5 -3.5,-8.5 0,-5 3.5,-8.5 2.8,-2.8 6.5,-3.35 v -3.15 q -5.05,0.55 -8.7,4.3 -4.45,4.4 -4.45,10.7 h 3 l -5,6 -5,-6 h 3 q 0,-8 5.6,-13.55 5.55,-5.6 13.55,-5.6 l 2,-0.05 v 7.35 q 3.7,0.55 6.5,3.35 3.5,3.5 3.5,8.5"
     style="fill:#000000;stroke:none" />
  <path
     id="path9306"
     d="m 128.95,559.95 v 3.15 q 3.7,0.55 6.5,3.35 3.5,3.5 3.5,8.5 0,5 -3.5,8.5 -3.5,3.5 -8.5,3.5 -5,0 -8.5,-3.5 -3.5,-3.5 -3.5,-8.5 0,-5 3.5,-8.5 2.8,-2.8 6.5,-3.35 v -5.3 q 0,-0.85 0.6,-1.4 0.55,-0.6 1.4,-0.6 8,0 13.6,5.6 5.55,5.55 5.55,13.55 h 3 l -5,6 -5,-6 h 3 q 0,-6.3 -4.4,-10.7 -3.7,-3.75 -8.75,-4.3"
     style="fill:#000000;stroke:none" />
  <path
     id="path9304"
     d="m 107.8,624.85 q 0,-8 5.6,-13.55 5.55,-5.6 13.55,-5.6 v -3 l 6,5 -6,5 v -3 q -6.3,0 -10.7,4.45 -4.45,4.4 -4.45,10.7 0,6.3 4.45,10.75 3.65,3.7 8.7,4.3 v -3.2 q -3.7,-0.55 -6.5,-3.35 -3.5,-3.5 -3.5,-8.5 0,-5 3.5,-8.5 3.5,-3.5 8.5,-3.5 5,0 8.5,3.5 3.5,3.5 3.5,8.5 0,5 -3.5,8.5 -2.8,2.8 -6.5,3.35 v 7.35 l -2,-0.05 q -8,0 -13.55,-5.55 -5.6,-5.6 -5.6,-13.6"
     style="fill:#000000;stroke:none" />
  <path
     d="m 12.65,571 2.65,-2.65 10.5,10.7 -2.65,2.65 -10.5,-10.7 m 3.7,-3.75 2.6,-2.65 5.25,5.35 -2.6,2.65 -5.25,-5.35 m 3.15,18.2 -10.5,-10.7 2.6,-2.65 10.5,10.7 -2.6,2.65 m 15.2,-20.9 5.25,5.35 0.05,5.4 -2.65,2.65 2.6,2.65 -7.9,8.05 h -5.2 l -2.1,2.15 -3.85,-3.9 12.6,-12.85 -3,-3.05 -5.25,5.35 -2.6,-2.7 7.9,-8 4.15,-1.1 m -6.8,1.65 -2.65,2.65 -5.25,-5.35 2.65,-2.65 5.25,5.35"
     style="fill:#000000;stroke:none"
     id="path9294" />
  <path
     d="m 14.55,624.85 7.85,8 1.95,-2 -7.85,-8 -1.95,2 m -8.55,1 q 0,-8.7 6.1,-14.9 6.15,-6.1 14.9,-6.1 8.7,0 14.8,6.1 6.2,6.2 6.2,14.9 0,8.75 -6.2,14.85 -6.1,6.15 -14.8,6.15 -8.75,0 -14.9,-6.15 Q 6,634.6 6,625.85 m 11.3,-3.85 7.85,8.05 2,-2 -7.9,-8 -1.95,1.95 m 16.5,-4.8 -3.1,0.8 -5.9,6 1.95,2.05 3.9,-4.05 2.25,2.3 -9.45,9.65 2.9,2.9 1.6,-1.6 h 3.9 l 5.9,-6.05 -1.95,-1.95 2,-2 -0.05,-4.05 -3.95,-4 m -9,-2.8 -2,2 3.95,4 1.95,-2 -3.9,-4 m -2.8,2.8 -1.95,2 3.95,4 1.95,-1.95 L 22,617.2"
     style="fill:#000000;stroke:none"
     id="path9282" />
  <path
     id="path9280"
     d="m 63.4,661.3 q 5.55,-5.6 13.55,-5.6 8,0 13.6,5.6 5.55,5.55 5.55,13.55 h 3 l -5,6 -5,-6 h 3 q 0,-6.3 -4.4,-10.7 -4.45,-4.45 -10.75,-4.45 -6.3,0 -10.7,4.45 -3.75,3.65 -4.3,8.7 h 3.15 q 0.55,-3.7 3.35,-6.5 3.5,-3.5 8.5,-3.5 5,0 8.5,3.5 3.5,3.5 3.5,8.5 0,5 -3.5,8.5 -3.5,3.5 -8.5,3.5 -5,0 -8.5,-3.5 -2.8,-2.8 -3.35,-6.5 h -7.35 l 0.05,-2 q 0,-8 5.6,-13.55"
     style="fill:#000000;stroke:none" />
  <path
     id="path9278"
     d="m 22.5,663.45 q 0.6,-0.6 1.45,-0.6 h 4 q 0.8,0 1.4,0.6 0.6,0.6 0.6,1.4 v 7 h 7 q 0.8,0 1.4,0.6 0.6,0.6 0.6,1.4 v 4 q 0,0.85 -0.6,1.45 -0.6,0.55 -1.4,0.55 h -7 v 7 q 0,0.85 -0.6,1.45 -0.6,0.55 -1.4,0.55 h -4 q -0.85,0 -1.45,-0.55 -0.55,-0.6 -0.55,-1.45 v -7 h -7 q -0.85,0 -1.45,-0.55 -0.55,-0.6 -0.55,-1.45 v -3.95 q 0,-0.85 0.55,-1.45 0.6,-0.6 1.45,-0.6 h 7 v -6.95 q 0,-0.85 0.55,-1.45"
     style="fill:#000000;stroke:none" />
  <path
     id="path9276"
     d="m 135.45,666.35 q 2.8,2.8 3.35,6.5 h 7.35 l -0.05,2 q 0,8 -5.55,13.6 -5.6,5.55 -13.6,5.55 -8,0 -13.55,-5.55 -5.6,-5.6 -5.6,-13.6 h -3 l 5,-6 5,6 h -3 q 0,6.3 4.45,10.75 4.4,4.4 10.7,4.4 6.3,0 10.75,-4.4 3.7,-3.7 4.3,-8.75 h -3.2 q -0.55,3.7 -3.35,6.5 -3.5,3.5 -8.5,3.5 -5,0 -8.5,-3.5 -3.5,-3.5 -3.5,-8.5 0,-5 3.5,-8.5 3.5,-3.5 8.5,-3.5 5,0 8.5,3.5"
     style="fill:#000000;stroke:none" />
  <path
     id="path9274"
     d="m 157.8,674.85 q 0,-8 5.6,-13.55 5.55,-5.6 13.55,-5.6 8,0 13.6,5.6 5.55,5.55 5.55,13.55 l 0.05,2 h -7.35 q -0.55,3.7 -3.35,6.5 -3.5,3.5 -8.5,3.5 -5,0 -8.5,-3.5 -3.5,-3.5 -3.5,-8.5 0,-5 3.5,-8.5 3.5,-3.5 8.5,-3.5 5,0 8.5,3.5 2.8,2.8 3.35,6.5 h 3.2 q -0.6,-5.05 -4.3,-8.7 -4.45,-4.45 -10.75,-4.45 -6.3,0 -10.7,4.45 -4.45,4.4 -4.45,10.7 h 3 l -5,6 -5,-6 h 3"
     style="fill:#000000;stroke:none" />
  <path
     id="path9272"
     d="m 245.55,573.45 q 0.55,0.55 0.55,1.4 0,8 -5.55,13.6 -5.6,5.55 -13.6,5.55 v 3 l -6,-5 6,-5 v 3 q 6.3,0 10.75,-4.4 3.7,-3.7 4.3,-8.75 h -3.2 q -0.55,3.7 -3.35,6.5 -3.5,3.5 -8.5,3.5 -5,0 -8.5,-3.5 -3.5,-3.5 -3.5,-8.5 0,-5 3.5,-8.5 3.5,-3.5 8.5,-3.5 5,0 8.5,3.5 2.8,2.8 3.35,6.5 h 5.3 q 0.85,0 1.45,0.6"
     style="fill:#000000;stroke:none" />
  <path
     id="path9270"
     d="m 176.95,552.7 v 3 q 8,0 13.6,5.6 5.55,5.55 5.55,13.55 l 0.05,2 h -7.35 q -0.55,3.7 -3.35,6.5 -3.5,3.5 -8.5,3.5 -5,0 -8.5,-3.5 -3.5,-3.5 -3.5,-8.5 0,-5 3.5,-8.5 3.5,-3.5 8.5,-3.5 5,0 8.5,3.5 2.8,2.8 3.35,6.5 h 3.2 q -0.6,-5.05 -4.3,-8.7 -4.45,-4.45 -10.75,-4.45 v 3 l -6,-5 6,-5"
     style="fill:#000000;stroke:none" />
  <path
     id="path9268"
     d="m 226.95,662.85 q 5,0 8.5,3.5 3.5,3.5 3.5,8.5 0,5 -3.5,8.5 -3.5,3.5 -8.5,3.5 -5,0 -8.5,-3.5 -2.8,-2.8 -3.35,-6.5 h -3.15 q 0.55,5.05 4.3,8.75 4.4,4.4 10.7,4.4 6.3,0 10.75,-4.4 4.4,-4.45 4.4,-10.75 h -3 l 5,-6 5,6 h -3 q 0,8 -5.55,13.6 -5.6,5.55 -13.6,5.55 -8,0 -13.55,-5.55 -5.6,-5.6 -5.6,-13.6 l -0.05,-2 h 7.35 q 0.55,-3.7 3.35,-6.5 3.5,-3.5 8.5,-3.5"
     style="fill:#000000;stroke:none" />
  <path
     id="path9266"
     d="m 226.95,605.7 2,-0.05 V 613 q 3.7,0.55 6.5,3.35 3.5,3.5 3.5,8.5 0,5 -3.5,8.5 -3.5,3.5 -8.5,3.5 -5,0 -8.5,-3.5 -3.5,-3.5 -3.5,-8.5 0,-5 3.5,-8.5 2.8,-2.8 6.5,-3.35 v -3.15 q -5.05,0.55 -8.7,4.3 -4.45,4.4 -4.45,10.7 0,6.3 4.45,10.75 4.4,4.4 10.7,4.4 v -3 l 6,5 -6,5 v -3 q -8,0 -13.55,-5.55 -5.6,-5.6 -5.6,-13.6 0,-8 5.6,-13.55 5.55,-5.6 13.55,-5.6"
     style="fill:#000000;stroke:none" />
  <path
     id="path9239"
     d="M 178.95,609.85 V 613 q 3.7,0.55 6.5,3.35 3.5,3.5 3.5,8.5 0,5 -3.5,8.5 -3.5,3.5 -8.5,3.5 -5,0 -8.5,-3.5 -3.5,-3.5 -3.5,-8.5 0,-5 3.5,-8.5 2.8,-2.8 6.5,-3.35 v -7.35 l 2,0.05 q 8,0 13.6,5.6 5.55,5.55 5.55,13.55 0,8 -5.55,13.6 l -0.25,0.25 h -0.05 q -5.55,5.3 -13.3,5.3 v 3 l -6,-5 6,-5 v 3 q 6.1,0 10.5,-4.15 l 0.05,-0.05 0.2,-0.2 q 4.4,-4.45 4.4,-10.75 0,-6.3 -4.4,-10.7 -3.7,-3.75 -8.75,-4.3"
     style="fill:#000000;stroke:none" />
  <path
     d="m 61.55,434.25 0.1,-0.1 q 1.05,-1.05 2.55,-1.05 1.5,-0.05 2.6,1 1.05,1.05 1.05,2.55 0,1.5 -1.05,2.55 l -0.1,0.1 q -2.25,2.2 -4.65,3.1 l -3.5,-0.1 q -1.1,-1.05 -0.15,-3.45 0.9,-2.4 3.15,-4.6 m 29.8,-26.4 3.65,3.4 q -17.9,29.3 -27.85,25.05 l -1.7,-1.7 q -3.5,-10.75 25.9,-26.75"
     style="fill:#000000;stroke:none"
     id="path9243" />
</svg>
